# Blender v2.75 (sub 0) OBJ File: ''
# www.blender.org
mtllib ball.mtl
o Sphere_Sphere.001
v 0.754552 2.007251 0.849730
v 0.566958 1.950345 0.849730
v 0.394072 1.857935 0.849730
v 0.242535 1.733572 0.849730
v 0.118172 1.582036 0.849730
v 0.025762 1.409149 0.849730
v -0.031143 1.221556 0.849730
v -0.050358 1.026466 0.849730
v -0.031143 0.831375 0.849730
v 0.025762 0.643782 0.849730
v 0.118172 0.470895 0.849730
v 0.242535 0.319359 0.849730
v 0.394072 0.194996 0.849730
v 0.566959 0.102586 0.849730
v 0.754552 0.045680 0.849730
v 0.949642 0.026466 0.849730
v 0.758300 2.007251 0.811670
v 0.574312 1.950345 0.775073
v 0.404747 1.857935 0.741344
v 0.256122 1.733572 0.711781
v 0.134149 1.582036 0.687519
v 0.043514 1.409149 0.669490
v -0.012298 1.221556 0.658389
v -0.031143 1.026466 0.654640
v -0.012298 0.831375 0.658389
v 0.043514 0.643782 0.669490
v 0.134149 0.470895 0.687519
v 0.256122 0.319359 0.711781
v 0.404747 0.194996 0.741344
v 0.574312 0.102586 0.775073
v 0.758300 0.045680 0.811670
v 0.769402 2.007251 0.775073
v 0.596088 1.950345 0.703284
v 0.436362 1.857935 0.637123
v 0.296360 1.733572 0.579132
v 0.181464 1.582036 0.531541
v 0.096089 1.409149 0.496177
v 0.043515 1.221556 0.474400
v 0.025762 1.026466 0.467047
v 0.043515 0.831375 0.474400
v 0.096089 0.643782 0.496177
v 0.181464 0.470895 0.531541
v 0.296360 0.319359 0.579132
v 0.436362 0.194996 0.637123
v 0.596089 0.102586 0.703284
v 0.769402 0.045680 0.775073
v 0.787430 2.007251 0.741344
v 0.631452 1.950345 0.637123
v 0.487702 1.857935 0.541072
v 0.361704 1.733572 0.456883
v 0.258300 1.582036 0.387791
v 0.181464 1.409149 0.336450
v 0.134149 1.221556 0.304835
v 0.118172 1.026466 0.294160
v 0.134149 0.831375 0.304835
v 0.181464 0.643782 0.336450
v 0.258300 0.470895 0.387791
v 0.361704 0.319359 0.456883
v 0.487702 0.194996 0.541072
v 0.631452 0.102586 0.637123
v 0.787430 0.045680 0.741344
v 0.811692 2.007251 0.711781
v 0.679044 1.950345 0.579132
v 0.556795 1.857935 0.456883
v 0.449642 1.733572 0.349730
v 0.361704 1.582036 0.261792
v 0.296361 1.409149 0.196449
v 0.256122 1.221556 0.156210
v 0.242535 1.026466 0.142623
v 0.256122 0.831375 0.156210
v 0.296360 0.643782 0.196449
v 0.361704 0.470895 0.261792
v 0.449642 0.319359 0.349730
v 0.556795 0.194996 0.456883
v 0.679044 0.102586 0.579132
v 0.811692 0.045680 0.711781
v 0.841256 2.007251 0.687519
v 0.737034 1.950345 0.531541
v 0.640984 1.857935 0.387791
v 0.556795 1.733572 0.261792
v 0.487702 1.582036 0.158389
v 0.436362 1.409149 0.081553
v 0.404747 1.221556 0.034237
v 0.394072 1.026466 0.018261
v 0.404747 0.831375 0.034237
v 0.436362 0.643782 0.081553
v 0.487702 0.470895 0.158389
v 0.556795 0.319359 0.261792
v 0.640984 0.194996 0.387791
v 0.737035 0.102586 0.531541
v 0.841256 0.045680 0.687519
v 0.874984 2.007251 0.669490
v 0.803195 1.950345 0.496177
v 0.737035 1.857935 0.336450
v 0.679044 1.733572 0.196449
v 0.631453 1.582036 0.081553
v 0.596089 1.409149 -0.003823
v 0.574312 1.221556 -0.056397
v 0.566959 1.026466 -0.074149
v 0.574312 0.831375 -0.056397
v 0.596089 0.643782 -0.003823
v 0.631453 0.470895 0.081553
v 0.679044 0.319359 0.196449
v 0.737035 0.194996 0.336450
v 0.803195 0.102586 0.496177
v 0.874984 0.045680 0.669490
v 0.911582 2.007251 0.658388
v 0.874984 1.950345 0.474400
v 0.841256 1.857935 0.304835
v 0.811692 1.733572 0.156210
v 0.787431 1.582036 0.034237
v 0.769402 1.409149 -0.056397
v 0.758301 1.221556 -0.112209
v 0.754552 1.026466 -0.131055
v 0.758301 0.831375 -0.112209
v 0.769402 0.643782 -0.056397
v 0.787431 0.470895 0.034237
v 0.811692 0.319359 0.156210
v 0.841256 0.194996 0.304835
v 0.874984 0.102586 0.474400
v 0.911582 0.045680 0.658389
v 0.949642 2.007251 0.654640
v 0.949642 1.950345 0.467047
v 0.949642 1.857935 0.294160
v 0.949642 1.733572 0.142624
v 0.949642 1.582036 0.018261
v 0.949642 1.409149 -0.074149
v 0.949642 1.221556 -0.131055
v 0.949642 1.026466 -0.150270
v 0.949642 0.831375 -0.131055
v 0.949642 0.643782 -0.074149
v 0.949642 0.470895 0.018261
v 0.949642 0.319359 0.142624
v 0.949642 0.194996 0.294160
v 0.949642 0.102586 0.467047
v 0.949642 0.045680 0.654640
v 0.987702 2.007251 0.658388
v 1.024300 1.950345 0.474400
v 1.058029 1.857935 0.304835
v 1.087592 1.733572 0.156210
v 1.111854 1.582036 0.034237
v 1.129882 1.409149 -0.056397
v 1.140984 1.221556 -0.112209
v 1.144733 1.026466 -0.131055
v 1.140984 0.831375 -0.112209
v 1.129882 0.643782 -0.056397
v 1.111854 0.470895 0.034237
v 1.087592 0.319359 0.156210
v 1.058029 0.194996 0.304835
v 1.024300 0.102586 0.474400
v 0.987702 0.045680 0.658389
v 1.024300 2.007251 0.669490
v 1.096089 1.950345 0.496177
v 1.162250 1.857935 0.336450
v 1.220240 1.733572 0.196449
v 1.267832 1.582036 0.081553
v 1.303196 1.409149 -0.003823
v 1.324973 1.221556 -0.056397
v 1.332326 1.026466 -0.074149
v 1.324973 0.831375 -0.056397
v 1.303195 0.643782 -0.003823
v 1.267832 0.470895 0.081553
v 1.220240 0.319359 0.196449
v 1.162250 0.194996 0.336450
v 1.096089 0.102586 0.496177
v 1.024300 0.045680 0.669491
v 1.058029 2.007251 0.687519
v 1.162250 1.950345 0.531541
v 1.258301 1.857935 0.387791
v 1.342490 1.733572 0.261793
v 1.411582 1.582036 0.158389
v 1.462922 1.409149 0.081553
v 1.494537 1.221556 0.034237
v 1.505213 1.026466 0.018261
v 1.494537 0.831375 0.034237
v 1.462922 0.643782 0.081553
v 1.411582 0.470895 0.158389
v 1.342490 0.319359 0.261793
v 1.258301 0.194996 0.387791
v 1.162250 0.102586 0.531541
v 1.058029 0.045680 0.687519
v 1.087592 2.007251 0.711781
v 1.220240 1.950345 0.579132
v 1.342490 1.857935 0.456883
v 1.449642 1.733572 0.349730
v 1.537580 1.582036 0.261793
v 1.602924 1.409149 0.196449
v 1.643162 1.221556 0.156211
v 1.656749 1.026466 0.142624
v 1.643162 0.831375 0.156211
v 1.602924 0.643782 0.196449
v 1.537580 0.470895 0.261793
v 1.449642 0.319359 0.349730
v 1.342490 0.194996 0.456883
v 1.220240 0.102586 0.579132
v 1.087592 0.045680 0.711781
v 1.111854 2.007251 0.741344
v 1.267832 1.950345 0.637123
v 1.411582 1.857935 0.541072
v 1.537580 1.733572 0.456883
v 1.640984 1.582036 0.387791
v 1.717820 1.409149 0.336450
v 1.765135 1.221556 0.304835
v 1.781112 1.026466 0.294160
v 1.765135 0.831375 0.304835
v 1.717820 0.643782 0.336450
v 1.640984 0.470895 0.387791
v 1.537580 0.319359 0.456883
v 1.411582 0.194996 0.541072
v 1.267832 0.102586 0.637123
v 1.111854 0.045680 0.741344
v 1.129882 2.007251 0.775073
v 1.303196 1.950345 0.703284
v 1.462922 1.857935 0.637123
v 1.602924 1.733572 0.579132
v 1.717820 1.582036 0.531541
v 1.803196 1.409149 0.496177
v 1.855770 1.221556 0.474400
v 1.873522 1.026466 0.467047
v 1.855770 0.831375 0.474400
v 1.803196 0.643782 0.496177
v 1.717820 0.470895 0.531541
v 1.602924 0.319359 0.579132
v 1.462922 0.194996 0.637123
v 1.303196 0.102586 0.703284
v 1.129882 0.045680 0.775073
v 1.140984 2.007251 0.811670
v 1.324973 1.950345 0.775073
v 1.494537 1.857935 0.741344
v 1.643162 1.733572 0.711781
v 1.765135 1.582036 0.687519
v 1.855770 1.409149 0.669490
v 1.911582 1.221556 0.658389
v 1.930428 1.026466 0.654640
v 1.911582 0.831375 0.658389
v 1.855770 0.643782 0.669490
v 1.765135 0.470895 0.687519
v 1.643162 0.319359 0.711781
v 1.494537 0.194996 0.741344
v 1.324973 0.102586 0.775073
v 1.140984 0.045680 0.811670
v 1.144733 2.007251 0.849730
v 1.332326 1.950345 0.849730
v 1.505213 1.857935 0.849730
v 1.656749 1.733572 0.849730
v 1.781112 1.582036 0.849731
v 1.873522 1.409149 0.849730
v 1.930427 1.221556 0.849731
v 1.949642 1.026466 0.849731
v 1.930427 0.831375 0.849731
v 1.873522 0.643782 0.849730
v 1.781112 0.470895 0.849731
v 1.656749 0.319359 0.849730
v 1.505212 0.194996 0.849730
v 1.332326 0.102586 0.849730
v 1.144732 0.045680 0.849730
v 1.140984 2.007251 0.887791
v 1.324973 1.950345 0.924388
v 1.494537 1.857935 0.958117
v 1.643162 1.733572 0.987680
v 1.765135 1.582036 1.011942
v 1.855770 1.409149 1.029970
v 1.911582 1.221556 1.041072
v 1.930428 1.026466 1.044821
v 1.911582 0.831375 1.041072
v 1.855770 0.643782 1.029970
v 1.765135 0.470895 1.011942
v 1.643162 0.319359 0.987680
v 1.494537 0.194996 0.958117
v 1.324972 0.102586 0.924388
v 1.140984 0.045680 0.887791
v 1.129882 2.007251 0.924388
v 1.303196 1.950345 0.996177
v 1.462922 1.857935 1.062338
v 1.602924 1.733572 1.120329
v 1.717820 1.582036 1.167920
v 1.803196 1.409149 1.203284
v 1.855769 1.221556 1.225061
v 1.873522 1.026466 1.232414
v 1.855769 0.831375 1.225061
v 1.803196 0.643782 1.203284
v 1.717820 0.470895 1.167920
v 1.602924 0.319359 1.120329
v 1.462922 0.194996 1.062338
v 1.303195 0.102586 0.996177
v 1.129882 0.045680 0.924388
v 1.111854 2.007251 0.958117
v 1.267832 1.950345 1.062338
v 1.411582 1.857935 1.158389
v 1.537580 1.733572 1.242578
v 1.640984 1.582036 1.311670
v 1.717820 1.409149 1.363010
v 1.765135 1.221556 1.394626
v 1.781112 1.026466 1.405301
v 1.765135 0.831375 1.394626
v 1.717820 0.643782 1.363010
v 1.640984 0.470895 1.311670
v 1.537580 0.319359 1.242578
v 1.411582 0.194996 1.158389
v 1.267832 0.102586 1.062338
v 1.111854 0.045680 0.958117
v 1.087592 2.007251 0.987680
v 1.220240 1.950345 1.120329
v 1.342490 1.857935 1.242578
v 1.449642 1.733572 1.349730
v 1.537580 1.582036 1.437668
v 1.602924 1.409149 1.503012
v 1.643162 1.221556 1.543250
v 1.656749 1.026466 1.556837
v 1.643162 0.831375 1.543250
v 1.602924 0.643782 1.503012
v 1.537580 0.470895 1.437668
v 1.449642 0.319359 1.349730
v 1.342490 0.194996 1.242578
v 1.220240 0.102586 1.120328
v 1.087592 0.045680 0.987680
v 1.058029 2.007251 1.011942
v 1.162250 1.950345 1.167920
v 1.258301 1.857935 1.311670
v 1.342490 1.733572 1.437668
v 1.411582 1.582036 1.541072
v 1.462922 1.409149 1.617908
v 1.494537 1.221556 1.665223
v 1.505212 1.026466 1.681200
v 1.494537 0.831375 1.665223
v 1.462922 0.643782 1.617908
v 1.411582 0.470895 1.541072
v 1.342490 0.319359 1.437668
v 1.258300 0.194996 1.311670
v 1.162250 0.102586 1.167920
v 1.058029 0.045680 1.011942
v 1.024300 2.007251 1.029971
v 1.096089 1.950345 1.203284
v 1.162250 1.857935 1.363010
v 1.220240 1.733572 1.503012
v 1.267832 1.582036 1.617908
v 1.303196 1.409149 1.703284
v 1.324972 1.221556 1.755858
v 1.332325 1.026466 1.773610
v 1.324972 0.831375 1.755858
v 1.303196 0.643782 1.703284
v 1.267832 0.470895 1.617908
v 1.220240 0.319359 1.503012
v 1.162250 0.194996 1.363010
v 1.096089 0.102586 1.203284
v 1.024300 0.045680 1.029970
v 0.987702 2.007251 1.041072
v 1.024300 1.950345 1.225061
v 1.058029 1.857935 1.394626
v 1.087592 1.733572 1.543250
v 1.111854 1.582036 1.665223
v 1.129882 1.409149 1.755858
v 1.140984 1.221556 1.811670
v 1.144732 1.026466 1.830516
v 1.140984 0.831375 1.811670
v 1.129882 0.643782 1.755858
v 1.111854 0.470895 1.665223
v 1.087592 0.319359 1.543250
v 1.058028 0.194996 1.394625
v 1.024300 0.102586 1.225061
v 0.987702 0.045680 1.041072
v 0.949642 2.007251 1.044821
v 0.949642 1.950345 1.232414
v 0.949642 1.857935 1.405301
v 0.949642 1.733572 1.556837
v 0.949642 1.582036 1.681200
v 0.949642 1.409149 1.773610
v 0.949642 1.221556 1.830515
v 0.949642 1.026466 1.849730
v 0.949642 0.831375 1.830515
v 0.949642 0.643782 1.773610
v 0.949642 0.470895 1.681200
v 0.949642 0.319359 1.556837
v 0.949642 0.194996 1.405301
v 0.949642 0.102586 1.232414
v 0.949642 0.045680 1.044821
v 0.911582 2.007251 1.041072
v 0.874984 1.950345 1.225061
v 0.841256 1.857935 1.394626
v 0.811692 1.733572 1.543250
v 0.787430 1.582036 1.665223
v 0.769402 1.409149 1.755858
v 0.758300 1.221556 1.811670
v 0.754552 1.026466 1.830516
v 0.758300 0.831375 1.811670
v 0.769402 0.643782 1.755858
v 0.787430 0.470895 1.665223
v 0.811692 0.319359 1.543250
v 0.841256 0.194996 1.394625
v 0.874984 0.102586 1.225061
v 0.911582 0.045680 1.041072
v 0.949642 2.026466 0.849731
v 0.874984 2.007251 1.029971
v 0.803196 1.950345 1.203284
v 0.737035 1.857935 1.363010
v 0.679044 1.733572 1.503012
v 0.631453 1.582036 1.617908
v 0.596089 1.409149 1.703284
v 0.574312 1.221556 1.755857
v 0.566959 1.026466 1.773610
v 0.574312 0.831375 1.755857
v 0.596089 0.643782 1.703284
v 0.631453 0.470895 1.617908
v 0.679044 0.319359 1.503012
v 0.737035 0.194996 1.363010
v 0.803196 0.102586 1.203284
v 0.874984 0.045680 1.029970
v 0.841256 2.007251 1.011942
v 0.737035 1.950345 1.167920
v 0.640984 1.857935 1.311670
v 0.556795 1.733572 1.437668
v 0.487702 1.582036 1.541072
v 0.436362 1.409149 1.617908
v 0.404747 1.221556 1.665223
v 0.394072 1.026466 1.681200
v 0.404747 0.831375 1.665223
v 0.436362 0.643782 1.617908
v 0.487702 0.470895 1.541072
v 0.556795 0.319359 1.437668
v 0.640984 0.194996 1.311670
v 0.737035 0.102586 1.167920
v 0.841256 0.045680 1.011942
v 0.811692 2.007251 0.987680
v 0.679044 1.950345 1.120328
v 0.556795 1.857935 1.242578
v 0.449642 1.733572 1.349730
v 0.361705 1.582036 1.437668
v 0.296361 1.409149 1.503012
v 0.256123 1.221556 1.543250
v 0.242535 1.026466 1.556837
v 0.256123 0.831375 1.543250
v 0.296361 0.643782 1.503012
v 0.361705 0.470895 1.437668
v 0.449642 0.319359 1.349730
v 0.556795 0.194996 1.242578
v 0.679044 0.102586 1.120328
v 0.811693 0.045680 0.987680
v 0.787430 2.007251 0.958117
v 0.631453 1.950345 1.062338
v 0.487702 1.857935 1.158389
v 0.361704 1.733572 1.242578
v 0.258301 1.582036 1.311670
v 0.181465 1.409149 1.363010
v 0.134149 1.221556 1.394625
v 0.118173 1.026466 1.405300
v 0.134149 0.831375 1.394625
v 0.181465 0.643782 1.363010
v 0.258301 0.470895 1.311670
v 0.361704 0.319359 1.242578
v 0.487703 0.194996 1.158389
v 0.631453 0.102586 1.062338
v 0.787431 0.045680 0.958117
v 0.769402 2.007251 0.924388
v 0.596089 1.950345 0.996177
v 0.436362 1.857935 1.062338
v 0.296361 1.733572 1.120328
v 0.181465 1.582036 1.167920
v 0.096089 1.409149 1.203284
v 0.043515 1.221556 1.225060
v 0.025763 1.026466 1.232414
v 0.043515 0.831375 1.225060
v 0.096089 0.643782 1.203284
v 0.181465 0.470895 1.167920
v 0.296361 0.319359 1.120328
v 0.436362 0.194996 1.062338
v 0.596089 0.102586 0.996177
v 0.769402 0.045680 0.924388
v 0.758300 2.007251 0.887791
v 0.574312 1.950345 0.924388
v 0.404747 1.857935 0.958117
v 0.256122 1.733572 0.987680
v 0.134149 1.582036 1.011942
v 0.043515 1.409149 1.029970
v -0.012297 1.221556 1.041072
v -0.031143 1.026466 1.044820
v -0.012297 0.831375 1.041072
v 0.043515 0.643782 1.029970
v 0.134149 0.470895 1.011942
v 0.256122 0.319359 0.987680
v 0.404747 0.194996 0.958117
v 0.574312 0.102586 0.924388
v 0.758301 0.045680 0.887791
vt 0.072009 0.226605
vt 0.106474 0.222019
vt 0.097791 0.185014
vt 0.777947 0.216692
vt 0.737259 0.216692
vt 0.732737 0.260057
vt 0.070712 0.188618
vt 0.087886 0.142796
vt 0.777947 0.260057
vt 0.729953 0.307111
vt 0.069233 0.145278
vt 0.077137 0.096986
vt 0.777947 0.307111
vt 0.729012 0.356045
vt 0.421462 0.666151
vt 0.421462 0.617216
vt 0.372527 0.618157
vt 0.077994 0.406414
vt 0.077380 0.396841
vt 0.123816 0.389240
vt 0.325473 0.666151
vt 0.372527 0.666151
vt 0.168360 0.409498
vt 0.125021 0.408019
vt 0.325473 0.620941
vt 0.282108 0.625463
vt 0.166612 0.382236
vt 0.204122 0.376096
vt 0.244099 0.666151
vt 0.282108 0.666151
vt 0.777947 0.178682
vt 0.743345 0.178682
vt 0.244099 0.631549
vt 0.282108 0.586339
vt 0.710073 0.178682
vt 0.698136 0.216692
vt 0.139382 0.210797
vt 0.123647 0.176197
vt 0.689265 0.260057
vt 0.105696 0.136723
vt 0.683803 0.307111
vt 0.086217 0.093890
vt 0.681959 0.356045
vt 0.421462 0.570163
vt 0.074910 0.387571
vt 0.118971 0.371058
vt 0.372527 0.572007
vt 0.159578 0.355839
vt 0.325473 0.577469
vt 0.195170 0.342500
vt 0.421462 0.526797
vt 0.372527 0.529475
vt 0.070679 0.378962
vt 0.110672 0.354170
vt 0.325473 0.537405
vt 0.147529 0.331321
vt 0.179835 0.311295
vt 0.244099 0.598277
vt 0.282108 0.550283
vt 0.679409 0.178682
vt 0.662079 0.216692
vt 0.169469 0.193371
vt 0.147287 0.162506
vt 0.649201 0.260057
vt 0.121978 0.127292
vt 0.094518 0.089082
vt 0.641271 0.307111
vt 0.638594 0.356045
vt 0.158707 0.283681
vt 0.181504 0.262389
vt 0.195578 0.170410
vt 0.167800 0.144465
vt 0.630475 0.216692
vt 0.614085 0.260057
vt 0.136109 0.114865
vt 0.603992 0.307111
vt 0.101721 0.082747
vt 0.421462 0.488788
vt 0.372527 0.492196
vt 0.064850 0.371343
vt 0.099238 0.339225
vt 0.325473 0.502289
vt 0.130929 0.309626
vt 0.187674 0.218701
vt 0.218375 0.191702
vt 0.422341 0.000440
vt 0.422341 0.038450
vt 0.471276 0.041127
vt 0.057647 0.365008
vt 0.085107 0.326799
vt 0.471276 0.003848
vt 0.518329 0.049057
vt 0.110416 0.291585
vt 0.561694 0.030331
vt 0.518329 0.013941
vt 0.132598 0.260720
vt 0.243219 0.159232
vt 0.216706 0.142796
vt 0.460351 0.257508
vt 0.460351 0.289112
vt 0.503716 0.276234
vt 0.184400 0.122769
vt 0.503716 0.241118
vt 0.550770 0.268304
vt 0.147543 0.099921
vt 0.107550 0.075129
vt 0.599704 0.227617
vt 0.550770 0.231025
vt 0.232041 0.111591
vt 0.196449 0.098252
vt 0.460351 0.325168
vt 0.503716 0.316298
vt 0.155842 0.083033
vt 0.111781 0.066519
vt 0.550770 0.310836
vt 0.599704 0.308992
vt 0.422341 0.081815
vt 0.471276 0.083659
vt 0.049346 0.360200
vt 0.068825 0.317368
vt 0.518329 0.089121
vt 0.086777 0.277893
vt 0.561694 0.061935
vt 0.102512 0.243293
vt 0.599704 0.079265
vt 0.561694 0.097992
vt 0.422341 0.306442
vt 0.422341 0.337106
vt 0.040266 0.357104
vt 0.051015 0.311295
vt 0.471276 0.129809
vt 0.518329 0.132593
vt 0.060921 0.269076
vt 0.599704 0.109929
vt 0.561694 0.137115
vt 0.422341 0.370378
vt 0.460351 0.364292
vt 0.240993 0.077994
vt 0.203482 0.071855
vt 0.503716 0.359770
vt 0.160687 0.064850
vt 0.550770 0.356986
vt 0.599704 0.356045
vt 0.422341 0.128868
vt 0.460351 0.404980
vt 0.503716 0.404980
vt 0.205231 0.044593
vt 0.114251 0.057250
vt 0.161891 0.046072
vt 0.550770 0.404980
vt 0.599704 0.404980
vt 0.422341 0.177803
vt 0.030757 0.355839
vt 0.032362 0.308813
vt 0.471276 0.177803
vt 0.518329 0.177803
vt 0.033841 0.265473
vt 0.035138 0.227485
vt 0.561694 0.177803
vt 0.599704 0.177803
vt 0.422341 0.404980
vt 0.243219 0.043296
vt 0.471276 0.225797
vt 0.518329 0.223012
vt 0.013584 0.310017
vt 0.006579 0.267222
vt 0.000440 0.229711
vt 0.561694 0.218490
vt 0.599704 0.212405
vt 0.422341 0.439581
vt 0.238633 0.008831
vt 0.460351 0.445667
vt 0.503716 0.450189
vt 0.201628 0.017513
vt 0.159409 0.027419
vt 0.114865 0.047677
vt 0.550770 0.452974
vt 0.599704 0.453914
vt 0.422341 0.226737
vt 0.021184 0.356453
vt 0.424010 0.629828
vt 0.433916 0.672046
vt 0.459772 0.663229
vt 0.835210 0.940365
vt 0.834196 0.893239
vt 0.790865 0.896741
vt 0.153336 0.009609
vt 0.110504 0.029088
vt 0.789211 0.944082
vt 0.791314 0.993006
vt 0.907382 0.189027
vt 0.860482 0.185237
vt 0.858378 0.234161
vt 0.421461 0.402241
vt 0.411915 0.403181
vt 0.402735 0.357031
vt 0.904378 0.237878
vt 0.860033 0.281502
vt 0.421461 0.311822
vt 0.421461 0.355187
vt 0.904378 0.328592
vt 0.903364 0.285003
vt 0.394275 0.314499
vt 0.386860 0.277220
vt 0.865381 0.325440
vt 0.874218 0.364288
vt 0.838215 0.811275
vt 0.805051 0.813955
vt 0.796214 0.852802
vt 0.442599 0.709051
vt 0.475507 0.697829
vt 0.835210 0.849651
vt 0.820099 0.278275
vt 0.368133 0.322429
vt 0.353588 0.287313
vt 0.829442 0.322536
vt 0.843654 0.361818
vt 0.774487 0.816424
vt 0.505594 0.680403
vt 0.760274 0.855707
vt 0.750931 0.899968
vt 0.483411 0.649537
vt 0.458103 0.614323
vt 0.441820 0.623754
vt 0.430642 0.576114
vt 0.746817 0.947508
vt 0.748089 0.996499
vt 0.817257 0.181744
vt 0.402735 0.405965
vt 0.384728 0.362493
vt 0.815985 0.230735
vt 0.472233 0.601897
vt 0.709659 0.950510
vt 0.710203 0.999560
vt 0.779371 0.178682
vt 0.778827 0.227732
vt 0.394275 0.410487
vt 0.368133 0.371364
vt 0.785097 0.275446
vt 0.344041 0.335307
vt 0.797941 0.319990
vt 0.322924 0.303703
vt 0.523799 0.705733
vt 0.554500 0.678733
vt 0.531703 0.657441
vt 0.305593 0.277766
vt 0.728773 0.858252
vt 0.715929 0.902796
vt 0.503925 0.631497
vt 0.322924 0.352637
vt 0.579343 0.646263
vt 0.552831 0.629828
vt 0.296047 0.325760
vt 0.038450 0.642546
vt 0.038450 0.610942
vt 0.081815 0.623819
vt 0.520525 0.609801
vt 0.483667 0.586952
vt 0.128868 0.669029
vt 0.081815 0.658936
vt 0.437846 0.569779
vt 0.128868 0.631749
vt 0.177803 0.634427
vt 0.293033 0.254206
vt 0.244099 0.257614
vt 0.244099 0.219604
vt 0.386860 0.416573
vt 0.353588 0.383301
vt 0.293033 0.216927
vt 0.340087 0.208997
vt 0.383452 0.227723
vt 0.340087 0.244113
vt 0.128868 0.589217
vt 0.177803 0.591062
vt 0.244099 0.176239
vt 0.293033 0.174395
vt 0.380774 0.423988
vt 0.341650 0.397847
vt 0.340087 0.168932
vt 0.383452 0.196119
vt 0.305593 0.373754
vt 0.273990 0.352637
vt 0.383452 0.160062
vt 0.421462 0.148125
vt 0.000440 0.593611
vt 0.000440 0.562948
vt 0.038450 0.574885
vt 0.568165 0.598623
vt 0.081815 0.583755
vt 0.532573 0.585283
vt 0.491966 0.570064
vt 0.447906 0.553551
vt 0.383452 0.120938
vt 0.421462 0.114853
vt 0.000440 0.529676
vt 0.038450 0.535761
vt 0.577118 0.565026
vt 0.539607 0.558886
vt 0.081815 0.540283
vt 0.496811 0.551882
vt 0.128868 0.543068
vt 0.177803 0.544008
vt 0.244099 0.129185
vt 0.293033 0.128245
vt 0.376252 0.432449
vt 0.332780 0.414442
vt 0.340087 0.125460
vt 0.292716 0.397847
vt 0.257599 0.383301
vt 0.244099 0.080251
vt 0.293033 0.080251
vt 0.373467 0.441628
vt 0.327318 0.432449
vt 0.340087 0.080251
vt 0.284786 0.423988
vt 0.383452 0.080251
vt 0.421462 0.080251
vt 0.000440 0.495074
vt 0.038450 0.495074
vt 0.579343 0.530328
vt 0.081815 0.495074
vt 0.541356 0.531624
vt 0.498016 0.533103
vt 0.450376 0.544281
vt 0.128868 0.495074
vt 0.177803 0.495074
vt 0.000440 0.460472
vt 0.574757 0.495862
vt 0.537752 0.504545
vt 0.038450 0.454386
vt 0.081815 0.449864
vt 0.495534 0.514451
vt 0.449724 0.525199
vt 0.128868 0.447080
vt 0.177803 0.446139
vt 0.244099 0.031317
vt 0.293033 0.032257
vt 0.372527 0.451175
vt 0.325473 0.451175
vt 0.340087 0.035042
vt 0.282108 0.451175
vt 0.247506 0.416573
vt 0.383452 0.039564
vt 0.421462 0.045649
vt 0.965346 0.938305
vt 0.967299 0.987209
vt 0.920327 0.989989
vt 0.373467 0.460722
vt 0.327318 0.469901
vt 0.919277 0.941031
vt 0.921950 0.893737
vt 0.284786 0.478361
vt 0.967299 0.847612
vt 0.965346 0.891168
vt 0.244099 0.451175
vt 0.383452 0.000440
vt 0.421462 0.012377
vt 0.705775 0.961184
vt 0.708779 0.999560
vt 0.675615 0.996880
vt 0.563535 0.462954
vt 0.528935 0.478689
vt 0.666778 0.958032
vt 0.661430 0.914094
vt 0.705775 0.870470
vt 0.704760 0.917595
vt 0.489461 0.496641
vt 0.659775 0.866753
vt 0.661878 0.817829
vt 0.045103 0.864199
vt 0.009986 0.878745
vt 0.026376 0.909409
vt 0.630839 0.955128
vt 0.621496 0.910867
vt 0.515244 0.455050
vt 0.480030 0.480358
vt 0.446628 0.516120
vt 0.617381 0.863327
vt 0.618654 0.814336
vt 0.877038 0.992551
vt 0.876820 0.943544
vt 0.376252 0.469901
vt 0.332780 0.487908
vt 0.881956 0.896104
vt 0.863554 0.037173
vt 0.872424 0.053768
vt 0.836367 0.077860
vt 0.928243 0.849923
vt 0.823489 0.053768
vt 0.804763 0.098977
vt 0.892249 0.852053
vt 0.907304 0.813086
vt 0.645051 0.994410
vt 0.839605 0.945746
vt 0.846901 0.898178
vt 0.884361 0.068314
vt 0.853697 0.098977
vt 0.000440 0.926739
vt 0.026377 0.958343
vt 0.048434 0.936286
vt 0.778827 0.116308
vt 0.826820 0.125854
vt 0.075311 0.909409
vt 0.599337 0.952583
vt 0.586493 0.908038
vt 0.057980 0.888292
vt 0.105975 0.878745
vt 0.467603 0.466228
vt 0.435485 0.500615
vt 0.580223 0.860324
vt 0.839094 0.994796
vt 0.911548 0.027626
vt 0.917633 0.035042
vt 0.096428 0.926739
vt 0.372527 0.881673
vt 0.325473 0.871580
vt 0.325473 0.836463
vt 0.452659 0.454794
vt 0.427867 0.494786
vt 0.372527 0.844393
vt 0.421461 0.847071
vt 0.777947 0.000440
vt 0.777947 0.038450
vt 0.729012 0.041127
vt 0.925049 0.041127
vt 0.898907 0.080251
vt 0.729012 0.003848
vt 0.681959 0.049057
vt 0.874815 0.116308
vt 0.638594 0.030331
vt 0.681959 0.013941
vt 0.057981 0.984280
vt 0.075311 0.958343
vt 0.804763 0.147912
vt 0.853697 0.147912
vt 0.282108 0.855189
vt 0.282108 0.823585
vt 0.915502 0.089121
vt 0.898907 0.129185
vt 0.638594 0.061935
vt 0.681959 0.089121
vt 0.600584 0.079265
vt 0.638594 0.097992
vt 0.244099 0.806255
vt 0.244099 0.775591
vt 0.105974 0.974733
vt 0.120520 0.939617
vt 0.282108 0.787529
vt 0.325473 0.796399
vt 0.120520 0.890683
vt 0.146662 0.851559
vt 0.137115 0.899553
vt 0.372527 0.801861
vt 0.421461 0.803706
vt 0.777947 0.081815
vt 0.729012 0.083659
vt 0.933509 0.045649
vt 0.325473 0.752927
vt 0.155122 0.905015
vt 0.164302 0.858865
vt 0.372527 0.755712
vt 0.421461 0.756652
vt 0.777947 0.128868
vt 0.729012 0.129809
vt 0.942688 0.048434
vt 0.681959 0.132593
vt 0.933509 0.094583
vt 0.925049 0.137115
vt 0.884361 0.164302
vt 0.638594 0.137115
vt 0.600584 0.143201
vt 0.244099 0.742319
vt 0.139247 0.984826
vt 0.146662 0.947547
vt 0.282108 0.748405
vt 0.681959 0.177803
vt 0.917633 0.174395
vt 0.952235 0.139793
vt 0.638594 0.177803
vt 0.600584 0.177803
vt 0.244099 0.707718
vt 0.282108 0.707718
vt 0.173848 0.988234
vt 0.325473 0.707718
vt 0.173848 0.950225
vt 0.483959 0.904531
vt 0.486441 0.885878
vt 0.439415 0.884273
vt 0.372527 0.707718
vt 0.421461 0.707718
vt 0.777947 0.177803
vt 0.952235 0.049374
vt 0.729012 0.177803
vt 0.952235 0.096428
vt 0.485236 0.867100
vt 0.438801 0.874700
vt 0.886894 0.810395
vt 0.886894 0.762401
vt 0.935829 0.761461
vt 0.629157 0.810395
vt 0.580223 0.810395
vt 0.580223 0.761461
vt 0.590092 0.550780
vt 0.589776 0.503727
vt 0.599316 0.502722
vt 0.629157 0.762401
vt 0.676211 0.765186
vt 0.608806 0.548809
vt 0.617552 0.591283
vt 0.719576 0.810395
vt 0.676211 0.810395
vt 0.590639 0.632152
vt 0.590384 0.594144
vt 0.719576 0.769708
vt 0.757586 0.775793
vt 0.796476 0.810395
vt 0.758466 0.810395
vt 0.758466 0.775793
vt 0.567768 0.888654
vt 0.565543 0.853956
vt 0.528032 0.860095
vt 0.796476 0.769708
vt 0.839841 0.765186
vt 0.529781 0.887357
vt 0.839841 0.810395
vt 0.625217 0.628512
vt 0.643639 0.583178
vt 0.719576 0.730584
vt 0.757586 0.742521
vt 0.758466 0.742521
vt 0.796476 0.730584
vt 0.556590 0.820359
vt 0.520998 0.833698
vt 0.839841 0.721714
vt 0.480392 0.848917
vt 0.436331 0.865431
vt 0.886894 0.716251
vt 0.935829 0.714407
vt 0.580223 0.714407
vt 0.629157 0.716251
vt 0.608477 0.499876
vt 0.626775 0.543226
vt 0.676211 0.721714
vt 0.886894 0.673720
vt 0.935829 0.671042
vt 0.580223 0.671042
vt 0.616906 0.495297
vt 0.643310 0.534244
vt 0.629157 0.673720
vt 0.676211 0.681650
vt 0.658421 0.618195
vt 0.667645 0.570138
vt 0.719576 0.694527
vt 0.757586 0.711857
vt 0.758466 0.711857
vt 0.541256 0.789154
vt 0.508950 0.809181
vt 0.796476 0.694527
vt 0.839841 0.681650
vt 0.472092 0.832029
vt 0.432100 0.856821
vt 0.567768 0.772718
vt 0.542925 0.740248
vt 0.520128 0.761540
vt 0.706478 0.627419
vt 0.688974 0.601600
vt 0.715702 0.579362
vt 0.492350 0.787485
vt 0.796476 0.662923
vt 0.839841 0.646533
vt 0.460658 0.817085
vt 0.426271 0.849203
vt 0.886894 0.636440
vt 0.935829 0.633032
vt 0.580223 0.633032
vt 0.624281 0.489162
vt 0.657776 0.522210
vt 0.629157 0.636440
vt 0.676211 0.646533
vt 0.688645 0.552666
vt 0.177803 0.850679
vt 0.177803 0.812669
vt 0.128868 0.809992
vt 0.630316 0.481706
vt 0.669615 0.507584
vt 0.128868 0.847271
vt 0.081815 0.802062
vt 0.705833 0.531433
vt 0.038450 0.820788
vt 0.081815 0.837178
vt 0.737578 0.552337
vt 0.512224 0.713249
vt 0.494019 0.738579
vt 0.737907 0.601270
vt 0.802520 0.484685
vt 0.802520 0.516289
vt 0.845885 0.503411
vt 0.471836 0.769444
vt 0.446528 0.804658
vt 0.892939 0.458202
vt 0.845885 0.468295
vt 0.000440 0.119495
vt 0.015384 0.130929
vt 0.040176 0.090937
vt 0.941873 0.454794
vt 0.892939 0.495481
vt 0.463932 0.721153
vt 0.448197 0.755753
vt 0.802520 0.552345
vt 0.845885 0.543475
vt 0.430245 0.795227
vt 0.032272 0.139228
vt 0.048786 0.095167
vt 0.892939 0.538013
vt 0.941873 0.536168
vt 0.177803 0.769304
vt 0.128868 0.767460
vt 0.634781 0.473216
vt 0.081815 0.761998
vt 0.678373 0.490930
vt 0.038450 0.789184
vt 0.718548 0.507255
vt 0.038450 0.753127
vt 0.000440 0.741190
vt 0.764510 0.533619
vt 0.764510 0.564283
vt 0.073633 0.425002
vt 0.076729 0.415923
vt 0.122538 0.426671
vt 0.128868 0.721310
vt 0.081815 0.718526
vt 0.683714 0.472887
vt 0.726302 0.481060
vt 0.763630 0.488225
vt 0.038450 0.714004
vt 0.000440 0.707918
vt 0.764510 0.597555
vt 0.431024 0.709931
vt 0.422341 0.746935
vt 0.802520 0.591469
vt 0.845885 0.586947
vt 0.017053 0.179835
vt 0.043450 0.186869
vt 0.050455 0.144073
vt 0.892939 0.584162
vt 0.941873 0.583222
vt 0.177803 0.722251
vt 0.029088 0.404745
vt 0.065959 0.049346
vt 0.067628 0.098252
vt 0.113600 0.038168
vt 0.011915 0.358923
vt 0.421461 0.451175
vt 0.105696 0.020787
vt 0.099361 0.013584
vt 0.091742 0.007755
vt 0.083133 0.003524
vt 0.073863 0.001054
vt 0.064290 0.000440
vt 0.054781 0.001705
vt 0.045702 0.004801
vt 0.037401 0.009609
vt 0.380774 0.478361
vt 0.030197 0.015944
vt 0.386860 0.485777
vt 0.024368 0.023563
vt 0.952235 0.000440
vt 0.020137 0.032172
vt 0.017667 0.041442
vt 0.580223 0.502851
vt 0.589447 0.454794
vt 0.017053 0.051015
vt 0.018319 0.060524
vt 0.021415 0.069603
vt 0.026223 0.077904
vt 0.032558 0.085107
vt 0.062490 0.440507
vt 0.068825 0.433303
vt 0.058055 0.097637
vt 0.802520 0.632156
vt 0.845885 0.632156
vt 0.892939 0.632156
vt 0.177803 0.673316
vt 0.128868 0.673316
vt 0.081815 0.673316
vt 0.164757 0.436577
vt 0.038450 0.673316
vt 0.201762 0.445260
vt 0.282108 0.706838
vt 0.764510 0.632156
vt 0.037311 0.224380
vt 0.777947 0.356045
vt 0.206348 0.410794
vt 0.244099 0.567613
vt 0.206348 0.294859
vt 0.600584 0.356045
vt 0.282108 0.518679
vt 0.150803 0.235389
vt 0.599704 0.265627
vt 0.069603 0.232071
vt 0.599704 0.143201
vt 0.838215 0.989216
vt 0.421461 0.273812
vt 0.907382 0.366968
vt 0.422341 0.580922
vt 0.341650 0.258494
vt 0.273990 0.303703
vt 0.443675 0.562160
vt 0.177803 0.672437
vt 0.421462 0.178789
vt 0.450990 0.534708
vt 0.247507 0.485777
vt 0.708779 0.821619
vt 0.441820 0.507819
vt 0.788373 0.068314
vt 0.937914 0.811275
vt 0.860701 0.853920
vt 0.094037 0.864200
vt 0.580768 0.811275
vt 0.421461 0.885081
vt 0.836367 0.173848
vt 0.600584 0.109929
vt 0.155122 0.856081
vt 0.952235 0.177803
vt 0.173848 0.906859
vt 0.438149 0.893782
vt 0.935829 0.810395
vt 0.757586 0.810395
vt 0.719576 0.662923
vt 0.763630 0.569493
vt 0.941873 0.492803
vt 0.753762 0.521564
vt 0.000440 0.771854
vt 0.116465 0.444481
vt 0.941873 0.632156
vt 0.244099 0.700752
vn -0.633200 -0.771500 -0.062400
vn -0.878600 0.469600 -0.086500
vn -0.470900 -0.881000 -0.046400
vn -0.952700 0.289000 -0.093800
vn -0.290200 -0.956500 -0.028600
vn -0.990400 0.097500 -0.097500
vn -0.990400 -0.097500 -0.097500
vn -0.290200 0.956500 -0.028600
vn -0.952700 -0.289000 -0.093800
vn -0.470900 0.881000 -0.046400
vn -0.878600 -0.469600 -0.086500
vn -0.633200 0.771500 -0.062400
vn -0.770800 -0.632600 -0.075900
vn -0.770800 0.632600 -0.075900
vn -0.741200 -0.632600 -0.224800
vn -0.741200 0.632600 -0.224800
vn -0.608800 -0.771500 -0.184700
vn -0.844800 0.469600 -0.256300
vn -0.452800 -0.881000 -0.137400
vn -0.916100 0.289000 -0.277900
vn -0.279000 -0.956500 -0.084600
vn -0.952400 0.097500 -0.288900
vn -0.952400 -0.097500 -0.288900
vn -0.279000 0.956500 -0.084600
vn -0.916100 -0.289000 -0.277900
vn -0.452800 0.881000 -0.137400
vn -0.844800 -0.469600 -0.256300
vn -0.608800 0.771500 -0.184700
vn -0.877700 -0.097600 -0.469100
vn -0.257100 0.956600 -0.137400
vn -0.844300 -0.289000 -0.451300
vn -0.417300 0.881000 -0.223000
vn -0.778600 -0.469600 -0.416200
vn -0.561100 0.771500 -0.299900
vn -0.683100 -0.632600 -0.365100
vn -0.683100 0.632600 -0.365100
vn -0.561100 -0.771500 -0.299900
vn -0.778600 0.469600 -0.416200
vn -0.417300 -0.881000 -0.223000
vn -0.844300 0.289000 -0.451300
vn -0.257100 -0.956500 -0.137400
vn -0.877700 0.097600 -0.469100
vn -0.598700 0.632600 -0.491300
vn -0.491800 -0.771500 -0.403600
vn -0.682500 0.469600 -0.560100
vn -0.365800 -0.881000 -0.300200
vn -0.740000 0.289000 -0.607300
vn -0.225400 -0.956500 -0.185000
vn -0.769300 0.097500 -0.631400
vn -0.769300 -0.097600 -0.631400
vn -0.225400 0.956600 -0.185000
vn -0.740000 -0.289000 -0.607300
vn -0.365800 0.881000 -0.300200
vn -0.682500 -0.469600 -0.560100
vn -0.491800 0.771500 -0.403600
vn -0.598700 -0.632600 -0.491300
vn -0.631400 -0.097600 -0.769300
vn -0.185000 0.956500 -0.225400
vn -0.607300 -0.289000 -0.740000
vn -0.300200 0.881000 -0.365800
vn -0.560100 -0.469600 -0.682500
vn -0.403600 0.771500 -0.491800
vn -0.491300 -0.632600 -0.598700
vn -0.491300 0.632600 -0.598700
vn -0.403600 -0.771500 -0.491800
vn -0.560100 0.469600 -0.682500
vn -0.300200 -0.881000 -0.365800
vn -0.607300 0.289000 -0.740000
vn -0.185000 -0.956500 -0.225400
vn -0.631400 0.097500 -0.769300
vn -0.299900 -0.771500 -0.561100
vn -0.416200 0.469600 -0.778600
vn -0.223100 -0.881000 -0.417300
vn -0.451300 0.289000 -0.844300
vn -0.137400 -0.956500 -0.257100
vn -0.469100 0.097600 -0.877700
vn -0.469100 -0.097600 -0.877700
vn -0.137400 0.956500 -0.257100
vn -0.451300 -0.289000 -0.844300
vn -0.223100 0.881000 -0.417300
vn -0.416200 -0.469600 -0.778600
vn -0.299900 0.771500 -0.561100
vn -0.365100 -0.632600 -0.683100
vn -0.365100 0.632600 -0.683100
vn -0.084600 0.956500 -0.279000
vn -0.277900 -0.289000 -0.916100
vn -0.137400 0.881000 -0.452800
vn -0.256300 -0.469600 -0.844800
vn -0.184700 0.771500 -0.608800
vn -0.224800 -0.632600 -0.741200
vn -0.224800 0.632600 -0.741200
vn -0.184700 -0.771500 -0.608800
vn -0.256300 0.469600 -0.844800
vn -0.137400 -0.881000 -0.452800
vn -0.277900 0.289000 -0.916100
vn -0.084600 -0.956500 -0.279000
vn -0.288900 0.097600 -0.952400
vn -0.288900 -0.097600 -0.952400
vn -0.086500 0.469600 -0.878600
vn -0.046400 -0.881000 -0.470900
vn -0.093800 0.289000 -0.952700
vn -0.028600 -0.956500 -0.290200
vn -0.097500 0.097600 -0.990400
vn -0.097500 -0.097600 -0.990400
vn -0.028600 0.956500 -0.290200
vn -0.093800 -0.289000 -0.952700
vn -0.046400 0.881000 -0.470900
vn -0.086500 -0.469600 -0.878600
vn -0.062400 0.771500 -0.633200
vn -0.075900 -0.632600 -0.770800
vn -0.075900 0.632600 -0.770800
vn -0.062400 -0.771500 -0.633200
vn 0.093800 -0.289000 -0.952700
vn 0.046400 0.881000 -0.470900
vn 0.086500 -0.469600 -0.878600
vn 0.062400 0.771500 -0.633200
vn 0.075900 -0.632600 -0.770800
vn 0.075900 0.632600 -0.770800
vn 0.062400 -0.771500 -0.633200
vn 0.086500 0.469600 -0.878600
vn 0.046400 -0.881000 -0.470900
vn 0.093800 0.289000 -0.952700
vn 0.028600 -0.956500 -0.290200
vn 0.097500 0.097600 -0.990400
vn 0.097500 -0.097600 -0.990400
vn 0.028600 0.956500 -0.290200
vn 0.137400 -0.881000 -0.452800
vn 0.277900 0.289000 -0.916100
vn 0.084600 -0.956500 -0.279000
vn 0.288900 0.097600 -0.952400
vn 0.288900 -0.097600 -0.952400
vn 0.084600 0.956600 -0.279000
vn 0.277900 -0.289000 -0.916100
vn 0.137400 0.881000 -0.452800
vn 0.256300 -0.469600 -0.844800
vn 0.184700 0.771500 -0.608800
vn 0.224800 -0.632600 -0.741200
vn 0.224800 0.632600 -0.741200
vn 0.184700 -0.771500 -0.608800
vn 0.256300 0.469600 -0.844800
vn 0.416200 -0.469600 -0.778600
vn 0.299900 0.771500 -0.561100
vn 0.365100 -0.632600 -0.683100
vn 0.365100 0.632600 -0.683100
vn 0.299900 -0.771500 -0.561100
vn 0.416200 0.469600 -0.778600
vn 0.223000 -0.881000 -0.417300
vn 0.451300 0.289000 -0.844300
vn 0.137400 -0.956500 -0.257100
vn 0.469100 0.097600 -0.877700
vn 0.469100 -0.097600 -0.877700
vn 0.137400 0.956500 -0.257100
vn 0.451300 -0.289000 -0.844300
vn 0.223100 0.881000 -0.417300
vn 0.185000 -0.956500 -0.225400
vn 0.631400 0.097600 -0.769300
vn 0.631400 -0.097600 -0.769300
vn 0.185000 0.956500 -0.225400
vn 0.607300 -0.289000 -0.740000
vn 0.300200 0.881000 -0.365800
vn 0.560100 -0.469600 -0.682500
vn 0.403600 0.771500 -0.491800
vn 0.491300 -0.632600 -0.598700
vn 0.491300 0.632600 -0.598700
vn 0.403600 -0.771500 -0.491800
vn 0.560100 0.469600 -0.682500
vn 0.300200 -0.881000 -0.365800
vn 0.607300 0.289000 -0.740000
vn 0.491800 0.771500 -0.403600
vn 0.598700 -0.632600 -0.491300
vn 0.598700 0.632600 -0.491300
vn 0.491800 -0.771500 -0.403600
vn 0.682500 0.469600 -0.560100
vn 0.365800 -0.881000 -0.300200
vn 0.740000 0.289000 -0.607300
vn 0.225400 -0.956500 -0.185000
vn 0.769300 0.097600 -0.631400
vn 0.769300 -0.097600 -0.631400
vn 0.225400 0.956500 -0.185000
vn 0.740000 -0.289000 -0.607300
vn 0.365800 0.881000 -0.300200
vn 0.682500 -0.469600 -0.560100
vn 0.877700 0.097600 -0.469100
vn 0.877700 -0.097600 -0.469100
vn 0.257100 0.956500 -0.137400
vn 0.844300 -0.289000 -0.451300
vn 0.417300 0.881000 -0.223100
vn 0.778600 -0.469600 -0.416200
vn 0.561100 0.771500 -0.299900
vn 0.683100 -0.632600 -0.365100
vn 0.683100 0.632600 -0.365100
vn 0.561100 -0.771500 -0.299900
vn 0.778600 0.469600 -0.416200
vn 0.417300 -0.881000 -0.223000
vn 0.844300 0.289000 -0.451300
vn 0.257100 -0.956500 -0.137400
vn 0.741200 -0.632600 -0.224800
vn 0.741200 0.632600 -0.224800
vn 0.608800 -0.771500 -0.184700
vn 0.844800 0.469600 -0.256300
vn 0.452800 -0.881000 -0.137400
vn 0.916100 0.289000 -0.277900
vn 0.279000 -0.956500 -0.084600
vn 0.952400 0.097600 -0.288900
vn 0.952400 -0.097600 -0.288900
vn 0.279000 0.956500 -0.084600
vn 0.916100 -0.289000 -0.277900
vn 0.452800 0.881000 -0.137400
vn 0.844800 -0.469600 -0.256300
vn 0.608800 0.771500 -0.184700
vn 0.990400 -0.097500 -0.097500
vn 0.290200 0.956500 -0.028600
vn 0.952700 -0.289000 -0.093800
vn 0.470900 0.881000 -0.046400
vn 0.878600 -0.469600 -0.086500
vn 0.633200 0.771500 -0.062400
vn 0.770800 -0.632600 -0.075900
vn 0.770800 0.632600 -0.075900
vn 0.633200 -0.771500 -0.062400
vn 0.878600 0.469600 -0.086500
vn 0.470900 -0.881000 -0.046400
vn 0.952700 0.289000 -0.093800
vn 0.290200 -0.956500 -0.028600
vn 0.990400 0.097600 -0.097500
vn 0.770800 0.632600 0.075900
vn 0.633200 -0.771500 0.062400
vn 0.878600 0.469600 0.086500
vn 0.470900 -0.881000 0.046400
vn 0.952700 0.289000 0.093800
vn 0.290200 -0.956500 0.028600
vn 0.990400 0.097600 0.097500
vn 0.990400 -0.097600 0.097500
vn 0.290200 0.956500 0.028600
vn 0.952700 -0.289000 0.093800
vn 0.470900 0.881000 0.046400
vn 0.878600 -0.469600 0.086500
vn 0.633200 0.771500 0.062400
vn 0.770800 -0.632600 0.075900
vn 0.952400 -0.097600 0.288900
vn 0.279000 0.956500 0.084600
vn 0.916100 -0.289000 0.277900
vn 0.452800 0.881000 0.137400
vn 0.844800 -0.469600 0.256300
vn 0.608800 0.771500 0.184700
vn 0.741200 -0.632600 0.224800
vn 0.741200 0.632600 0.224800
vn 0.608800 -0.771500 0.184700
vn 0.844800 0.469600 0.256300
vn 0.452800 -0.881000 0.137400
vn 0.916100 0.289000 0.277900
vn 0.279000 -0.956500 0.084600
vn 0.952400 0.097600 0.288900
vn 0.561100 -0.771500 0.299900
vn 0.778600 0.469600 0.416200
vn 0.417300 -0.881000 0.223100
vn 0.844300 0.289000 0.451300
vn 0.257100 -0.956500 0.137400
vn 0.877700 0.097600 0.469100
vn 0.877700 -0.097600 0.469100
vn 0.257100 0.956600 0.137400
vn 0.844300 -0.289000 0.451300
vn 0.417300 0.881000 0.223000
vn 0.778600 -0.469600 0.416200
vn 0.561100 0.771500 0.299900
vn 0.683100 -0.632600 0.365100
vn 0.683100 0.632600 0.365100
vn 0.740000 -0.289000 0.607300
vn 0.365800 0.881000 0.300200
vn 0.682500 -0.469600 0.560100
vn 0.491800 0.771500 0.403600
vn 0.598700 -0.632600 0.491300
vn 0.598700 0.632600 0.491300
vn 0.491800 -0.771500 0.403600
vn 0.682500 0.469600 0.560100
vn 0.365800 -0.881000 0.300200
vn 0.740000 0.289000 0.607300
vn 0.225400 -0.956500 0.185000
vn 0.769300 0.097600 0.631400
vn 0.769300 -0.097600 0.631400
vn 0.225400 0.956500 0.185000
vn 0.300200 -0.881000 0.365800
vn 0.607300 0.289000 0.740000
vn 0.185000 -0.956500 0.225400
vn 0.631400 0.097600 0.769300
vn 0.631400 -0.097600 0.769300
vn 0.185000 0.956600 0.225400
vn 0.607300 -0.289000 0.740000
vn 0.300200 0.881000 0.365800
vn 0.560100 -0.469600 0.682500
vn 0.403600 0.771500 0.491800
vn 0.491300 -0.632600 0.598700
vn 0.491300 0.632600 0.598700
vn 0.403600 -0.771500 0.491800
vn 0.560100 0.469600 0.682500
vn 0.223000 0.881000 0.417300
vn 0.416200 -0.469600 0.778600
vn 0.299900 0.771500 0.561100
vn 0.365100 -0.632600 0.683100
vn 0.365100 0.632600 0.683100
vn 0.299900 -0.771500 0.561100
vn 0.416200 0.469600 0.778600
vn 0.223000 -0.881000 0.417300
vn 0.451300 0.289000 0.844300
vn 0.137400 -0.956500 0.257100
vn 0.469100 0.097600 0.877700
vn 0.469100 -0.097600 0.877700
vn 0.137400 0.956600 0.257100
vn 0.451300 -0.289000 0.844300
vn 0.277900 0.289000 0.916100
vn 0.084600 -0.956500 0.279000
vn 0.288900 0.097600 0.952400
vn 0.288900 -0.097600 0.952400
vn 0.084600 0.956500 0.279000
vn 0.277900 -0.289000 0.916100
vn 0.137400 0.881000 0.452800
vn 0.256300 -0.469600 0.844800
vn 0.184700 0.771500 0.608800
vn 0.224800 -0.632600 0.741200
vn 0.224800 0.632600 0.741200
vn 0.184700 -0.771500 0.608800
vn 0.256300 0.469600 0.844800
vn 0.137400 -0.881000 0.452800
vn 0.086500 -0.469600 0.878600
vn 0.062400 0.771500 0.633200
vn 0.075900 -0.632600 0.770800
vn 0.075900 0.632600 0.770800
vn 0.062400 -0.771500 0.633200
vn 0.086500 0.469600 0.878600
vn 0.046400 -0.881000 0.470900
vn 0.093800 0.289000 0.952700
vn 0.028600 -0.956500 0.290200
vn 0.097600 0.097600 0.990400
vn 0.097500 -0.097600 0.990400
vn 0.028600 0.956500 0.290200
vn 0.093800 -0.289000 0.952700
vn 0.046400 0.881000 0.470900
vn -0.028600 -0.956500 0.290200
vn -0.097600 0.097600 0.990400
vn -0.097600 -0.097600 0.990400
vn -0.028600 0.956500 0.290200
vn -0.093800 -0.289000 0.952700
vn -0.046400 0.881000 0.470900
vn -0.086500 -0.469600 0.878600
vn -0.062400 0.771500 0.633200
vn -0.075900 -0.632600 0.770800
vn -0.075900 0.632600 0.770800
vn -0.062400 -0.771500 0.633200
vn -0.086500 0.469600 0.878600
vn -0.046400 -0.881000 0.470900
vn -0.093800 0.289000 0.952700
vn -0.184700 0.771500 0.608800
vn -0.224800 -0.632600 0.741200
vn -0.224800 0.632600 0.741200
vn -0.184700 -0.771500 0.608800
vn -0.256300 0.469600 0.844800
vn -0.137400 -0.881000 0.452800
vn -0.277900 0.289000 0.916100
vn -0.084600 -0.956500 0.279000
vn -0.288900 0.097600 0.952400
vn -0.288900 -0.097600 0.952400
vn -0.084600 0.956500 0.279000
vn -0.277900 -0.289000 0.916100
vn -0.137400 0.881000 0.452800
vn -0.256300 -0.469600 0.844800
vn -0.469100 0.097600 0.877700
vn -0.469100 -0.097600 0.877700
vn -0.137400 0.956500 0.257100
vn -0.451300 -0.289000 0.844300
vn -0.223000 0.881000 0.417300
vn -0.416200 -0.469600 0.778600
vn -0.299900 0.771500 0.561100
vn -0.365100 -0.632600 0.683100
vn -0.365100 0.632600 0.683100
vn -0.299900 -0.771500 0.561100
vn -0.416200 0.469600 0.778600
vn -0.223000 -0.881000 0.417300
vn -0.451300 0.289000 0.844300
vn -0.137400 -0.956500 0.257100
vn -0.491300 -0.632600 0.598700
vn -0.491300 0.632600 0.598700
vn -0.403600 -0.771500 0.491800
vn -0.560100 0.469600 0.682500
vn -0.300200 -0.881000 0.365800
vn -0.607300 0.289000 0.740000
vn -0.185000 -0.956500 0.225400
vn -0.631400 0.097600 0.769300
vn -0.631400 -0.097600 0.769300
vn -0.185000 0.956500 0.225400
vn -0.607300 -0.289000 0.740000
vn -0.300200 0.881000 0.365800
vn -0.560100 -0.469600 0.682500
vn -0.403600 0.771500 0.491800
vn -0.769300 -0.097600 0.631400
vn -0.225400 0.956500 0.185000
vn -0.740000 -0.289000 0.607300
vn -0.365800 0.881000 0.300200
vn -0.682500 -0.469600 0.560100
vn -0.491800 0.771500 0.403600
vn -0.598700 -0.632600 0.491300
vn -0.598700 0.632600 0.491300
vn -0.491800 -0.771500 0.403600
vn -0.682500 0.469600 0.560100
vn -0.365800 -0.881000 0.300200
vn -0.740000 0.289000 0.607300
vn -0.225400 -0.956500 0.185000
vn -0.769300 0.097600 0.631400
vn -0.561100 -0.771500 0.299900
vn -0.778600 0.469600 0.416200
vn -0.417300 -0.881000 0.223000
vn -0.844300 0.289000 0.451300
vn -0.257100 -0.956500 0.137400
vn -0.877700 0.097600 0.469100
vn -0.877700 -0.097600 0.469100
vn -0.257100 0.956600 0.137400
vn -0.844300 -0.289000 0.451300
vn -0.417300 0.881000 0.223000
vn -0.778600 -0.469600 0.416200
vn -0.561100 0.771500 0.299900
vn -0.683100 -0.632600 0.365100
vn -0.683100 0.632600 0.365100
vn -0.279000 0.956500 0.084600
vn -0.916100 -0.289000 0.277900
vn -0.452800 0.881000 0.137400
vn -0.844800 -0.469600 0.256300
vn -0.608800 0.771500 0.184700
vn -0.741200 -0.632600 0.224800
vn -0.741200 0.632600 0.224800
vn -0.608800 -0.771500 0.184700
vn -0.844800 0.469600 0.256300
vn -0.452800 -0.881000 0.137400
vn -0.916100 0.289000 0.277900
vn -0.279000 -0.956500 0.084600
vn -0.952400 0.097600 0.288900
vn -0.952400 -0.097600 0.288900
vn -0.098000 0.995100 -0.009700
vn -0.098000 -0.995100 -0.009700
vn -0.094200 0.995100 -0.028600
vn -0.094200 -0.995100 -0.028600
vn -0.086900 0.995100 -0.046400
vn -0.086900 -0.995100 -0.046400
vn -0.076100 0.995100 -0.062500
vn -0.076100 -0.995100 -0.062500
vn -0.062500 0.995100 -0.076100
vn -0.062500 -0.995100 -0.076100
vn -0.046400 0.995100 -0.086900
vn -0.046400 -0.995100 -0.086900
vn -0.028600 0.995100 -0.094200
vn -0.028600 -0.995100 -0.094200
vn -0.009700 0.995100 -0.098000
vn -0.009700 -0.995100 -0.098000
vn 0.009700 0.995100 -0.098000
vn 0.009700 -0.995100 -0.098000
vn 0.028600 0.995100 -0.094200
vn 0.028600 -0.995100 -0.094200
vn 0.046400 0.995100 -0.086900
vn 0.046400 -0.995100 -0.086900
vn 0.062500 0.995100 -0.076100
vn 0.062500 -0.995100 -0.076100
vn 0.076100 0.995100 -0.062500
vn 0.076100 -0.995100 -0.062500
vn 0.086900 0.995100 -0.046400
vn 0.086900 -0.995100 -0.046400
vn 0.094200 0.995100 -0.028600
vn 0.094200 -0.995100 -0.028600
vn 0.098000 0.995100 -0.009700
vn 0.098000 -0.995100 -0.009700
vn 0.098000 0.995100 0.009700
vn 0.098000 -0.995100 0.009700
vn 0.094200 0.995100 0.028600
vn 0.094200 -0.995100 0.028600
vn 0.086900 0.995100 0.046400
vn 0.086900 -0.995100 0.046400
vn 0.076100 0.995100 0.062500
vn 0.076100 -0.995100 0.062500
vn 0.062500 0.995100 0.076100
vn 0.062500 -0.995100 0.076100
vn 0.046400 0.995100 0.086900
vn 0.046400 -0.995100 0.086900
vn 0.028600 0.995100 0.094200
vn 0.028600 -0.995100 0.094200
vn 0.009700 0.995100 0.098000
vn 0.009700 -0.995100 0.098000
vn -0.009700 0.995100 0.098000
vn -0.009700 -0.995100 0.098000
vn -0.028600 0.995100 0.094200
vn -0.028600 -0.995100 0.094200
vn -0.046400 0.995100 0.086900
vn -0.046400 -0.995100 0.086900
vn -0.062500 0.995100 0.076100
vn -0.062500 -0.995100 0.076100
vn -0.076100 -0.995100 0.062500
vn -0.076100 0.995100 0.062500
vn -0.086900 0.995100 0.046400
vn -0.086900 -0.995100 0.046400
vn -0.094200 0.995100 0.028600
vn -0.094200 -0.995100 0.028600
vn -0.878600 0.469600 0.086500
vn -0.470900 -0.881000 0.046400
vn -0.952700 0.289000 0.093800
vn -0.290200 -0.956500 0.028600
vn -0.990400 0.097600 0.097600
vn -0.098000 0.995100 0.009700
vn -0.098000 -0.995100 0.009700
vn -0.990400 -0.097500 0.097600
vn -0.290200 0.956500 0.028600
vn -0.952700 -0.289000 0.093800
vn -0.470900 0.881000 0.046400
vn -0.878600 -0.469600 0.086500
vn -0.633200 0.771500 0.062400
vn -0.770800 -0.632600 0.075900
vn -0.770800 0.632600 0.075900
vn -0.633200 -0.771500 0.062400
vn -0.952400 0.097600 -0.288900
vn -0.279000 0.956600 -0.084600
vn -0.877700 -0.097500 -0.469100
vn -0.257100 0.956500 -0.137400
vn -0.417300 0.881000 -0.223100
vn -0.877700 0.097500 -0.469100
vn -0.769300 0.097600 -0.631400
vn -0.769300 -0.097500 -0.631400
vn -0.631400 -0.097500 -0.769300
vn -0.631400 0.097600 -0.769300
vn -0.223000 -0.881000 -0.417300
vn -0.223000 0.881000 -0.417300
vn 0.084600 0.956500 -0.279000
vn 0.223100 -0.881000 -0.417300
vn 0.137400 -0.956600 -0.257100
vn 0.223000 0.881000 -0.417300
vn 0.257100 -0.956600 -0.137400
vn 0.952400 0.097500 -0.288900
vn 0.990400 -0.097600 -0.097500
vn 0.990400 0.097500 -0.097500
vn 0.279000 0.956600 0.084600
vn 0.417300 -0.881000 0.223000
vn 0.257100 0.956500 0.137400
vn 0.417300 0.881000 0.223100
vn 0.185000 0.956500 0.225400
vn 0.137400 0.956500 0.257100
vn 0.097500 0.097600 0.990400
vn 0.097600 -0.097600 0.990400
vn -0.223100 0.881000 0.417300
vn -0.257100 0.956500 0.137400
vn -0.417300 0.881000 0.223100
vn -0.990400 0.097500 0.097600
vn -0.990400 -0.097600 0.097600
usemtl None
s off
f 12/1/1 28/2/1 29/3/1
f 5/4/2 21/5/2 22/6/2
f 13/7/3 29/3/3 30/8/3
f 6/9/4 22/6/4 23/10/4
f 14/11/5 30/8/5 31/12/5
f 7/13/6 23/10/6 24/14/6
f 8/15/7 24/16/7 25/17/7
f 1/18/8 17/19/8 18/20/8
f 10/21/9 9/22/9 25/17/9
f 3/23/10 2/24/10 18/20/10
f 10/21/11 26/25/11 27/26/11
f 3/23/12 19/27/12 20/28/12
f 12/29/13 11/30/13 27/26/13
f 4/31/14 20/32/14 21/5/14
f 28/33/15 27/26/15 42/34/15
f 20/32/16 35/35/16 36/36/16
f 28/2/17 43/37/17 44/38/17
f 21/5/18 36/36/18 37/39/18
f 29/3/19 44/38/19 45/40/19
f 22/6/20 37/39/20 38/41/20
f 30/8/21 45/40/21 46/42/21
f 23/10/22 38/41/22 39/43/22
f 25/17/23 24/16/23 39/44/23
f 17/19/24 32/45/24 33/46/24
f 26/25/25 25/17/25 40/47/25
f 18/20/26 33/46/26 34/48/26
f 26/25/27 41/49/27 42/34/27
f 19/27/28 34/48/28 35/50/28
f 39/44/29 54/51/29 55/52/29
f 32/45/30 47/53/30 48/54/30
f 40/47/31 55/52/31 56/55/31
f 33/46/32 48/54/32 49/56/32
f 42/34/33 41/49/33 56/55/33
f 34/48/34 49/56/34 50/57/34
f 43/58/35 42/34/35 57/59/35
f 35/35/36 50/60/36 51/61/36
f 43/37/37 58/62/37 59/63/37
f 36/36/38 51/61/38 52/64/38
f 44/38/39 59/63/39 60/65/39
f 38/41/40 37/39/40 52/64/40
f 45/40/41 60/65/41 61/66/41
f 38/41/42 53/67/42 54/68/42
f 50/57/43 65/69/43 66/70/43
f 58/62/44 73/71/44 74/72/44
f 51/61/45 66/73/45 67/74/45
f 59/63/46 74/72/46 75/75/46
f 52/64/47 67/74/47 68/76/47
f 60/65/48 75/75/48 76/77/48
f 54/68/49 53/67/49 68/76/49
f 54/51/50 69/78/50 70/79/50
f 47/53/51 62/80/51 63/81/51
f 55/52/52 70/79/52 71/82/52
f 48/54/53 63/81/53 64/83/53
f 57/59/54 56/55/54 71/82/54
f 49/56/55 64/83/55 65/69/55
f 57/84/56 72/85/56 73/71/56
f 69/86/57 84/87/57 85/88/57
f 62/80/58 77/89/58 78/90/58
f 70/91/59 85/88/59 86/92/59
f 63/81/60 78/90/60 79/93/60
f 72/94/61 71/95/61 86/92/61
f 64/83/62 79/93/62 80/96/62
f 72/85/63 87/97/63 88/98/63
f 66/70/64 65/69/64 80/96/64
f 74/72/65 73/71/65 88/98/65
f 66/99/66 81/100/66 82/101/66
f 75/75/67 74/72/67 89/102/67
f 67/103/68 82/101/68 83/104/68
f 75/75/69 90/105/69 91/106/69
f 69/107/70 68/108/70 83/104/70
f 88/98/71 103/109/71 104/110/71
f 81/100/72 96/111/72 97/112/72
f 90/105/73 89/102/73 104/110/73
f 83/104/74 82/101/74 97/112/74
f 90/105/75 105/113/75 106/114/75
f 83/104/76 98/115/76 99/116/76
f 84/87/77 99/117/77 100/118/77
f 77/89/78 92/119/78 93/120/78
f 85/88/79 100/118/79 101/121/79
f 78/90/80 93/120/80 94/122/80
f 87/123/81 86/92/81 101/121/81
f 79/93/82 94/122/82 95/124/82
f 88/125/83 87/123/83 102/126/83
f 81/100/84 80/127/84 95/128/84
f 92/119/85 107/129/85 108/130/85
f 100/118/86 115/131/86 116/132/86
f 93/120/87 108/130/87 109/133/87
f 102/126/88 101/121/88 116/132/88
f 95/124/89 94/122/89 109/133/89
f 103/134/90 102/126/90 117/135/90
f 95/128/91 110/136/91 111/137/91
f 103/109/92 118/138/92 119/139/92
f 96/111/93 111/137/93 112/140/93
f 104/110/94 119/139/94 120/141/94
f 98/115/95 97/112/95 112/140/95
f 106/114/96 105/113/96 120/141/96
f 98/115/97 113/142/97 114/143/97
f 99/117/98 114/144/98 115/131/98
f 111/137/99 126/145/99 127/146/99
f 120/141/100 119/139/100 134/147/100
f 113/142/101 112/140/101 127/146/101
f 121/148/102 120/141/102 135/149/102
f 113/142/103 128/150/103 129/151/103
f 115/131/104 114/144/104 129/152/104
f 107/129/105 122/153/105 123/154/105
f 115/131/106 130/155/106 131/156/106
f 108/130/107 123/154/107 124/157/107
f 117/135/108 116/132/108 131/156/108
f 109/133/109 124/157/109 125/158/109
f 117/135/110 132/159/110 133/160/110
f 110/136/111 125/161/111 126/145/111
f 119/139/112 118/138/112 133/162/112
f 130/155/113 145/163/113 146/164/113
f 123/154/114 138/165/114 139/166/114
f 132/159/115 131/156/115 146/164/115
f 124/157/116 139/166/116 140/167/116
f 132/159/117 147/168/117 148/169/117
f 126/145/118 125/161/118 140/170/118
f 134/147/119 133/162/119 148/171/119
f 126/145/120 141/172/120 142/173/120
f 134/147/121 149/174/121 150/175/121
f 128/150/122 127/146/122 142/173/122
f 136/176/123 135/149/123 150/175/123
f 128/150/124 143/177/124 144/178/124
f 129/152/125 144/179/125 145/163/125
f 123/154/126 122/153/126 137/180/126
f 150/181/127 149/182/127 164/183/127
f 143/184/128 142/185/128 157/186/128
f 150/175/129 165/187/129 166/188/129
f 143/184/130 158/189/130 159/190/130
f 144/191/131 159/192/131 160/193/131
f 137/194/132 152/195/132 153/196/132
f 145/197/133 160/193/133 161/198/133
f 139/199/134 138/200/134 153/196/134
f 147/201/135 146/202/135 161/198/135
f 139/199/136 154/203/136 155/204/136
f 147/201/137 162/205/137 163/206/137
f 140/207/138 155/208/138 156/209/138
f 148/210/139 163/211/139 164/183/139
f 141/212/140 156/209/140 157/186/140
f 162/205/141 161/198/141 176/213/141
f 154/203/142 169/214/142 170/215/142
f 162/205/143 177/216/143 178/217/143
f 156/209/144 155/208/144 170/218/144
f 164/183/145 163/211/145 178/219/145
f 156/209/146 171/220/146 172/221/146
f 164/183/147 179/222/147 180/223/147
f 158/189/148 157/186/148 172/221/148
f 165/224/149 180/223/149 181/225/149
f 158/189/150 173/226/150 174/227/150
f 160/193/151 159/192/151 174/228/151
f 152/195/152 167/229/152 168/230/152
f 160/193/153 175/231/153 176/213/153
f 153/196/154 168/230/154 169/214/154
f 181/225/155 180/223/155 195/232/155
f 173/226/156 188/233/156 189/234/156
f 174/228/157 189/235/157 190/236/157
f 167/229/158 182/237/158 183/238/158
f 175/231/159 190/236/159 191/239/159
f 168/230/160 183/238/160 184/240/160
f 176/213/161 191/239/161 192/241/161
f 169/214/162 184/240/162 185/242/162
f 177/243/163 192/244/163 193/245/163
f 170/215/164 185/242/164 186/246/164
f 179/222/165 178/219/165 193/245/165
f 171/220/166 186/247/166 187/248/166
f 179/222/167 194/249/167 195/232/167
f 173/226/168 172/221/168 187/248/168
f 185/242/169 184/240/169 199/250/169
f 192/244/170 207/251/170 208/252/170
f 186/246/171 185/242/171 200/253/171
f 194/249/172 193/245/172 208/252/172
f 186/254/173 201/255/173 202/256/173
f 194/249/174 209/257/174 210/258/174
f 188/259/175 187/260/175 202/256/175
f 196/261/176 195/232/176 210/258/176
f 188/259/177 203/262/177 204/263/177
f 190/264/178 189/265/178 204/266/178
f 182/237/179 197/267/179 198/268/179
f 190/264/180 205/269/180 206/270/180
f 183/238/181 198/268/181 199/250/181
f 192/271/182 191/272/182 206/270/182
f 203/262/183 218/273/183 219/274/183
f 204/266/184 219/275/184 220/276/184
f 197/267/185 212/277/185 213/278/185
f 205/269/186 220/276/186 221/279/186
f 199/250/187 198/268/187 213/278/187
f 207/280/188 206/270/188 221/279/188
f 199/250/189 214/281/189 215/282/189
f 207/280/190 222/283/190 223/284/190
f 200/285/191 215/286/191 216/287/191
f 209/257/192 208/252/192 223/288/192
f 201/255/193 216/287/193 217/289/193
f 209/257/194 224/290/194 225/291/194
f 203/262/195 202/256/195 217/289/195
f 210/258/196 225/291/196 226/292/196
f 222/283/197 237/293/197 238/294/197
f 215/286/198 230/295/198 231/296/198
f 223/288/199 238/297/199 239/298/199
f 216/287/200 231/296/200 232/299/200
f 224/290/201 239/298/201 240/300/201
f 218/273/202 217/289/202 232/299/202
f 226/292/203 225/291/203 240/300/203
f 218/273/204 233/301/204 234/302/204
f 219/275/205 234/303/205 235/304/205
f 212/277/206 227/305/206 228/306/206
f 220/276/207 235/304/207 236/307/207
f 213/278/208 228/306/208 229/308/208
f 222/283/209 221/279/209 236/307/209
f 214/281/210 229/308/210 230/309/210
f 234/303/211 249/310/211 250/311/211
f 227/305/212 242/312/212 243/313/212
f 235/304/213 250/311/213 251/314/213
f 229/308/214 228/306/214 243/313/214
f 237/293/215 236/307/215 251/314/215
f 230/309/216 229/308/216 244/315/216
f 237/293/217 252/316/217 253/317/217
f 230/295/218 245/318/218 246/319/218
f 239/298/219 238/297/219 253/320/219
f 231/296/220 246/319/220 247/321/220
f 239/298/221 254/322/221 255/323/221
f 233/301/222 232/299/222 247/321/222
f 241/324/223 240/300/223 255/323/223
f 233/301/224 248/325/224 249/326/224
f 246/319/225 245/318/225 260/327/225
f 253/320/226 268/328/226 269/329/226
f 246/319/227 261/330/227 262/331/227
f 254/322/228 269/329/228 270/332/228
f 248/325/229 247/321/229 262/331/229
f 255/323/230 270/332/230 271/333/230
f 248/325/231 263/334/231 264/335/231
f 249/310/232 264/336/232 265/337/232
f 242/312/233 257/338/233 258/339/233
f 250/311/234 265/337/234 266/340/234
f 243/313/235 258/339/235 259/341/235
f 252/316/236 251/314/236 266/340/236
f 245/342/237 244/315/237 259/341/237
f 252/316/238 267/343/238 268/344/238
f 265/345/239 264/346/239 279/347/239
f 257/338/240 272/348/240 273/349/240
f 265/345/241 280/350/241 281/351/241
f 258/339/242 273/349/242 274/352/242
f 267/353/243 266/354/243 281/351/243
f 260/355/244 259/341/244 274/352/244
f 267/343/245 282/356/245 283/357/245
f 261/358/246 260/359/246 275/360/246
f 268/328/247 283/361/247 284/362/247
f 261/358/248 276/363/248 277/364/248
f 270/332/249 269/329/249 284/362/249
f 263/365/250 262/366/250 277/364/250
f 271/333/251 270/332/251 285/367/251
f 263/365/252 278/368/252 279/369/252
f 284/370/253 283/371/253 298/372/253
f 276/363/254 291/373/254 292/374/254
f 284/362/255 299/375/255 300/376/255
f 278/368/256 277/364/256 292/374/256
f 286/377/257 285/367/257 300/376/257
f 278/368/258 293/378/258 294/379/258
f 279/347/259 294/380/259 295/381/259
f 272/348/260 287/382/260 288/383/260
f 280/350/261 295/381/261 296/384/261
f 273/385/262 288/386/262 289/387/262
f 282/388/263 281/351/263 296/384/263
f 274/389/264 289/387/264 290/390/264
f 282/388/265 297/391/265 298/392/265
f 276/363/266 275/360/266 290/393/266
f 295/381/267 310/394/267 311/395/267
f 288/386/268 303/396/268 304/397/268
f 297/391/269 296/384/269 311/395/269
f 290/390/270 289/387/270 304/397/270
f 297/398/271 312/399/271 313/400/271
f 291/401/272 290/390/272 305/402/272
f 298/372/273 313/400/273 314/403/273
f 291/373/274 306/404/274 307/405/274
f 299/406/275 314/403/275 315/407/275
f 293/378/276 292/374/276 307/405/276
f 300/376/277 315/408/277 316/409/277
f 294/379/278 293/378/278 308/410/278
f 294/380/279 309/411/279 310/394/279
f 287/412/280 302/413/280 303/396/280
f 315/407/281 314/403/281 329/414/281
f 308/415/282 307/416/282 322/417/282
f 315/408/283 330/418/283 331/419/283
f 308/415/284 323/420/284 324/421/284
f 309/422/285 324/423/285 325/424/285
f 302/413/286 317/425/286 318/426/286
f 310/427/287 325/424/287 326/428/287
f 303/396/288 318/426/288 319/429/288
f 312/430/289 311/431/289 326/428/289
f 305/402/290 304/397/290 319/429/290
f 312/399/291 327/432/291 328/433/291
f 306/434/292 305/402/292 320/435/292
f 313/400/293 328/433/293 329/414/293
f 306/436/294 321/437/294 322/417/294
f 318/426/295 333/438/295 334/439/295
f 327/440/296 326/428/296 341/441/296
f 320/435/297 319/429/297 334/439/297
f 328/442/298 327/440/298 342/443/298
f 321/437/299 320/444/299 335/445/299
f 328/433/300 343/446/300 344/447/300
f 321/437/301 336/448/301 337/449/301
f 330/450/302 329/414/302 344/447/302
f 323/420/303 322/417/303 337/449/303
f 331/451/304 330/450/304 345/452/304
f 323/420/305 338/453/305 339/454/305
f 324/423/306 339/455/306 340/456/306
f 317/425/307 332/457/307 333/438/307
f 325/424/308 340/456/308 341/441/308
f 338/453/309 337/449/309 352/458/309
f 345/452/310 360/459/310 361/460/310
f 338/453/311 353/461/311 354/462/311
f 339/455/312 354/463/312 355/464/312
f 333/438/313 332/457/313 347/465/313
f 340/456/314 355/464/314 356/466/314
f 333/438/315 348/467/315 349/468/315
f 342/443/316 341/441/316 356/466/316
f 335/469/317 334/439/317 349/468/317
f 342/443/318 357/470/318 358/471/318
f 336/448/319 335/445/319 350/472/319
f 343/446/320 358/473/320 359/474/320
f 336/448/321 351/475/321 352/458/321
f 345/452/322 344/447/322 359/474/322
f 357/470/323 356/466/323 371/476/323
f 350/477/324 349/468/324 364/478/324
f 357/470/325 372/479/325 373/480/325
f 350/472/326 365/481/326 366/482/326
f 359/474/327 358/473/327 373/483/327
f 351/475/328 366/482/328 367/484/328
f 360/459/329 359/474/329 374/485/329
f 353/461/330 352/458/330 367/484/330
f 360/486/331 375/487/331 376/488/331
f 353/461/332 368/489/332 369/490/332
f 355/464/333 354/463/333 369/491/333
f 348/467/334 347/465/334 362/492/334
f 355/464/335 370/493/335 371/476/335
f 348/467/336 363/494/336 364/478/336
f 375/487/337 390/495/337 391/496/337
f 368/497/338 383/498/338 384/499/338
f 370/500/339 369/501/339 384/502/339
f 363/503/340 362/504/340 377/505/340
f 370/500/341 385/506/341 386/507/341
f 363/503/342 378/508/342 379/509/342
f 372/510/343 371/511/343 386/507/343
f 365/512/344 364/513/344 379/509/344
f 372/510/345 387/514/345 388/515/345
f 366/516/346 365/517/346 380/518/346
f 373/519/347 388/520/347 389/521/347
f 366/516/348 381/522/348 382/523/348
f 375/487/349 374/524/349 389/521/349
f 368/497/350 367/525/350 382/523/350
f 380/526/351 379/509/351 395/527/351
f 387/514/352 403/528/352 404/529/352
f 380/518/353 396/530/353 397/531/353
f 388/520/354 404/532/354 405/533/354
f 381/522/355 397/531/355 398/534/355
f 390/495/356 389/521/356 405/533/356
f 383/498/357 382/523/357 398/534/357
f 390/495/358 406/535/358 407/536/358
f 383/498/359 399/537/359 400/538/359
f 384/502/360 400/539/360 401/540/360
f 377/505/361 393/541/361 394/542/361
f 385/506/362 401/540/362 402/543/362
f 378/508/363 394/542/363 395/527/363
f 387/514/364 386/507/364 402/543/364
f 399/537/365 414/544/365 415/545/365
f 401/540/366 400/539/366 415/546/366
f 393/541/367 408/547/367 409/548/367
f 401/540/368 416/549/368 417/550/368
f 395/527/369 394/542/369 409/548/369
f 403/528/370 402/543/370 417/550/370
f 396/551/371 395/527/371 410/552/371
f 403/528/372 418/553/372 419/554/372
f 397/531/373 396/530/373 411/555/373
f 404/532/374 419/556/374 420/557/374
f 397/531/375 412/558/375 413/559/375
f 406/535/376 405/533/376 420/557/376
f 399/537/377 398/534/377 413/559/377
f 406/535/378 421/560/378 422/561/378
f 418/562/379 433/563/379 434/564/379
f 412/565/380 411/566/380 426/567/380
f 419/556/381 434/564/381 435/568/381
f 412/558/382 427/569/382 428/570/382
f 420/557/383 435/568/383 436/571/383
f 414/544/384 413/559/384 428/570/384
f 421/560/385 436/571/385 437/572/385
f 414/544/386 429/573/386 430/574/386
f 416/549/387 415/546/387 430/575/387
f 408/547/388 423/576/388 424/577/388
f 416/549/389 431/578/389 432/579/389
f 409/548/390 424/577/390 425/580/390
f 418/553/391 417/550/391 432/579/391
f 410/552/392 425/580/392 426/567/392
f 430/581/393 445/582/393 446/583/393
f 423/576/394 438/584/394 439/585/394
f 431/586/395 446/583/395 447/587/395
f 424/577/396 439/585/396 440/588/396
f 433/589/397 432/590/397 447/587/397
f 425/580/398 440/588/398 441/591/398
f 433/563/399 448/592/399 449/593/399
f 427/594/400 426/567/400 441/591/400
f 435/568/401 434/564/401 449/593/401
f 427/595/402 442/596/402 443/597/402
f 435/568/403 450/598/403 451/599/403
f 429/600/404 428/601/404 443/597/404
f 436/602/405 451/603/405 452/604/405
f 430/605/406 429/600/406 444/606/406
f 449/593/407 464/607/407 465/608/407
f 442/596/408 457/609/408 458/610/408
f 450/598/409 465/608/409 466/611/409
f 444/606/410 443/597/410 458/610/410
f 451/603/411 466/612/411 467/613/411
f 444/606/412 459/614/412 460/615/412
f 445/582/413 460/616/413 461/617/413
f 439/585/414 438/584/414 453/618/414
f 446/583/415 461/617/415 462/619/415
f 440/588/416 439/585/416 454/620/416
f 448/621/417 447/587/417 462/619/417
f 441/591/418 440/588/418 455/622/418
f 448/621/419 463/623/419 464/624/419
f 442/596/420 441/625/420 456/626/420
f 453/627/421 468/628/421 469/629/421
f 461/617/422 476/630/422 477/631/422
f 454/620/423 469/632/423 470/633/423
f 463/623/424 462/619/424 477/631/424
f 455/622/425 470/633/425 471/634/425
f 463/623/426 478/635/426 479/636/426
f 457/609/427 456/626/427 471/637/427
f 464/607/428 479/638/428 480/639/428
f 457/609/429 472/640/429 473/641/429
f 465/642/430 480/643/430 481/644/430
f 459/614/431 458/610/431 473/641/431
f 467/613/432 466/612/432 481/644/432
f 459/614/433 474/645/433 475/646/433
f 460/616/434 475/647/434 476/630/434
f 1/18/435 392/648/435 17/19/435
f 16/649/436 15/650/436 31/12/436
f 17/19/437 392/648/437 32/45/437
f 16/649/438 31/12/438 46/42/438
f 32/45/439 392/648/439 47/53/439
f 16/649/440 46/42/440 61/66/440
f 47/53/441 392/648/441 62/80/441
f 16/649/442 61/66/442 76/77/442
f 62/80/443 392/648/443 77/89/443
f 16/649/444 76/77/444 91/106/444
f 77/89/445 392/648/445 92/119/445
f 16/649/446 91/106/446 106/114/446
f 92/119/447 392/648/447 107/129/447
f 16/649/448 106/114/448 121/148/448
f 107/129/449 392/648/449 122/153/449
f 16/649/450 121/148/450 136/176/450
f 122/153/451 392/648/451 137/180/451
f 16/649/452 136/176/452 151/651/452
f 137/180/453 392/648/453 152/652/453
f 16/649/454 151/651/454 166/188/454
f 152/195/455 392/653/455 167/229/455
f 16/649/456 166/188/456 181/654/456
f 167/229/457 392/653/457 182/237/457
f 16/649/458 181/654/458 196/655/458
f 182/237/459 392/653/459 197/267/459
f 16/649/460 196/655/460 211/656/460
f 197/267/461 392/653/461 212/277/461
f 16/649/462 211/656/462 226/657/462
f 212/277/463 392/653/463 227/305/463
f 16/649/464 226/657/464 241/658/464
f 227/305/465 392/653/465 242/312/465
f 16/649/466 241/658/466 256/659/466
f 242/312/467 392/653/467 257/338/467
f 16/649/468 256/659/468 271/660/468
f 257/338/469 392/653/469 272/348/469
f 16/649/470 271/660/470 286/661/470
f 272/348/471 392/653/471 287/382/471
f 16/649/472 286/661/472 301/662/472
f 287/382/473 392/653/473 302/663/473
f 16/649/474 301/662/474 316/664/474
f 302/663/475 392/653/475 317/665/475
f 16/649/476 316/664/476 331/666/476
f 317/425/477 392/667/477 332/457/477
f 16/649/478 331/666/478 346/668/478
f 332/457/479 392/667/479 347/465/479
f 16/649/480 346/668/480 361/669/480
f 347/670/481 392/671/481 362/504/481
f 16/649/482 361/669/482 376/672/482
f 362/504/483 392/671/483 377/505/483
f 16/649/484 376/672/484 391/673/484
f 377/505/485 392/671/485 393/541/485
f 16/649/486 391/673/486 407/674/486
f 393/541/487 392/671/487 408/547/487
f 16/649/488 407/674/488 422/675/488
f 408/547/489 392/671/489 423/576/489
f 16/649/490 422/675/490 437/676/490
f 16/649/491 437/676/491 452/604/491
f 423/677/492 392/648/492 438/678/492
f 438/678/493 392/648/493 453/627/493
f 16/649/494 452/604/494 467/613/494
f 453/627/495 392/648/495 468/628/495
f 16/649/496 467/613/496 482/679/496
f 473/641/497 472/640/497 5/680/497
f 480/643/498 13/7/498 14/11/498
f 474/645/499 473/641/499 6/681/499
f 481/644/500 14/11/500 15/650/500
f 475/646/501 474/645/501 7/682/501
f 468/628/502 392/648/502 1/18/502
f 16/649/503 482/679/503 15/650/503
f 475/647/504 8/683/504 9/684/504
f 469/629/505 468/628/505 1/18/505
f 476/630/506 9/684/506 10/685/506
f 470/686/507 469/629/507 2/24/507
f 477/631/508 10/685/508 11/687/508
f 471/688/509 470/686/509 3/23/509
f 478/689/510 11/30/510 12/29/510
f 472/640/511 471/637/511 4/690/511
f 479/691/512 12/1/512 13/7/512
f 13/7/1 12/1/1 29/3/1
f 6/9/2 5/4/2 22/6/2
f 14/11/3 13/7/3 30/8/3
f 7/13/4 6/9/4 23/10/4
f 15/650/5 14/11/5 31/12/5
f 8/692/6 7/13/6 24/14/6
f 9/22/7 8/15/7 25/17/7
f 2/24/8 1/18/8 18/20/8
f 26/25/9 10/21/9 25/17/9
f 19/27/10 3/23/10 18/20/10
f 11/30/11 10/21/11 27/26/11
f 4/693/12 3/23/12 20/28/12
f 28/33/13 12/29/13 27/26/13
f 5/4/14 4/31/14 21/5/14
f 43/58/15 28/33/15 42/34/15
f 21/5/16 20/32/16 36/36/16
f 29/3/17 28/2/17 44/38/17
f 22/6/18 21/5/18 37/39/18
f 30/8/19 29/3/19 45/40/19
f 23/10/20 22/6/20 38/41/20
f 31/12/21 30/8/21 46/42/21
f 24/14/513 23/10/513 39/43/513
f 40/47/23 25/17/23 39/44/23
f 18/20/514 17/19/514 33/46/514
f 41/49/25 26/25/25 40/47/25
f 19/27/26 18/20/26 34/48/26
f 27/26/27 26/25/27 42/34/27
f 20/28/28 19/27/28 35/50/28
f 40/47/515 39/44/515 55/52/515
f 33/46/516 32/45/516 48/54/516
f 41/49/31 40/47/31 56/55/31
f 34/48/517 33/46/517 49/56/517
f 57/59/33 42/34/33 56/55/33
f 35/50/34 34/48/34 50/57/34
f 58/694/35 43/58/35 57/59/35
f 36/36/36 35/35/36 51/61/36
f 44/38/37 43/37/37 59/63/37
f 37/39/38 36/36/38 52/64/38
f 45/40/39 44/38/39 60/65/39
f 53/67/40 38/41/40 52/64/40
f 46/42/41 45/40/41 61/66/41
f 39/43/518 38/41/518 54/68/518
f 51/695/43 50/57/43 66/70/43
f 59/63/44 58/62/44 74/72/44
f 52/64/45 51/61/45 67/74/45
f 60/65/46 59/63/46 75/75/46
f 53/67/47 52/64/47 68/76/47
f 61/66/48 60/65/48 76/77/48
f 69/696/519 54/68/519 68/76/519
f 55/52/520 54/51/520 70/79/520
f 48/54/51 47/53/51 63/81/51
f 56/55/52 55/52/52 71/82/52
f 49/56/53 48/54/53 64/83/53
f 72/697/54 57/59/54 71/82/54
f 50/57/55 49/56/55 65/69/55
f 58/62/56 57/84/56 73/71/56
f 70/91/521 69/86/521 85/88/521
f 63/81/58 62/80/58 78/90/58
f 71/95/59 70/91/59 86/92/59
f 64/83/60 63/81/60 79/93/60
f 87/123/61 72/94/61 86/92/61
f 65/69/62 64/83/62 80/96/62
f 73/71/63 72/85/63 88/98/63
f 81/698/64 66/70/64 80/96/64
f 89/102/65 74/72/65 88/98/65
f 67/103/66 66/99/66 82/101/66
f 90/105/67 75/75/67 89/102/67
f 68/108/68 67/103/68 83/104/68
f 76/77/69 75/75/69 91/106/69
f 84/699/522 69/107/522 83/104/522
f 89/102/71 88/98/71 104/110/71
f 82/101/72 81/100/72 97/112/72
f 105/113/523 90/105/523 104/110/523
f 98/115/74 83/104/74 97/112/74
f 91/106/75 90/105/75 106/114/75
f 84/699/76 83/104/76 99/116/76
f 85/88/77 84/87/77 100/118/77
f 78/90/78 77/89/78 93/120/78
f 86/92/79 85/88/79 101/121/79
f 79/93/524 78/90/524 94/122/524
f 102/126/81 87/123/81 101/121/81
f 80/96/82 79/93/82 95/124/82
f 103/134/83 88/125/83 102/126/83
f 96/111/84 81/100/84 95/128/84
f 93/120/85 92/119/85 108/130/85
f 101/121/86 100/118/86 116/132/86
f 94/122/87 93/120/87 109/133/87
f 117/135/88 102/126/88 116/132/88
f 110/700/89 95/124/89 109/133/89
f 118/701/90 103/134/90 117/135/90
f 96/111/91 95/128/91 111/137/91
f 104/110/92 103/109/92 119/139/92
f 97/112/93 96/111/93 112/140/93
f 105/113/94 104/110/94 120/141/94
f 113/142/95 98/115/95 112/140/95
f 121/148/96 106/114/96 120/141/96
f 99/116/97 98/115/97 114/143/97
f 100/118/98 99/117/98 115/131/98
f 112/140/99 111/137/99 127/146/99
f 135/149/100 120/141/100 134/147/100
f 128/150/101 113/142/101 127/146/101
f 136/176/102 121/148/102 135/149/102
f 114/143/103 113/142/103 129/151/103
f 130/155/104 115/131/104 129/152/104
f 108/130/105 107/129/105 123/154/105
f 116/132/106 115/131/106 131/156/106
f 109/133/107 108/130/107 124/157/107
f 132/159/108 117/135/108 131/156/108
f 110/700/109 109/133/109 125/158/109
f 118/701/110 117/135/110 133/160/110
f 111/137/111 110/136/111 126/145/111
f 134/147/112 119/139/112 133/162/112
f 131/156/113 130/155/113 146/164/113
f 124/157/114 123/154/114 139/166/114
f 147/168/115 132/159/115 146/164/115
f 125/158/116 124/157/116 140/167/116
f 133/160/117 132/159/117 148/169/117
f 141/172/118 126/145/118 140/170/118
f 149/174/119 134/147/119 148/171/119
f 127/146/120 126/145/120 142/173/120
f 135/149/121 134/147/121 150/175/121
f 143/177/122 128/150/122 142/173/122
f 151/651/123 136/176/123 150/175/123
f 129/151/124 128/150/124 144/178/124
f 130/155/125 129/152/125 145/163/125
f 138/165/126 123/154/126 137/180/126
f 165/224/127 150/181/127 164/183/127
f 158/189/128 143/184/128 157/186/128
f 151/651/129 150/175/129 166/188/129
f 144/702/130 143/184/130 159/190/130
f 145/197/131 144/191/131 160/193/131
f 138/200/525 137/194/525 153/196/525
f 146/202/133 145/197/133 161/198/133
f 154/203/134 139/199/134 153/196/134
f 162/205/135 147/201/135 161/198/135
f 140/703/136 139/199/136 155/204/136
f 148/704/137 147/201/137 163/206/137
f 141/212/138 140/207/138 156/209/138
f 149/182/139 148/210/139 164/183/139
f 142/185/140 141/212/140 157/186/140
f 177/216/141 162/205/141 176/213/141
f 155/204/142 154/203/142 170/215/142
f 163/206/143 162/205/143 178/217/143
f 171/220/144 156/209/144 170/218/144
f 179/222/145 164/183/145 178/219/145
f 157/186/146 156/209/146 172/221/146
f 165/224/526 164/183/526 180/223/526
f 173/226/148 158/189/148 172/221/148
f 166/705/527 165/224/527 181/225/527
f 159/190/150 158/189/150 174/227/150
f 175/231/151 160/193/151 174/228/151
f 153/196/152 152/195/152 168/230/152
f 161/198/153 160/193/153 176/213/153
f 154/203/528 153/196/528 169/214/528
f 196/261/155 181/225/155 195/232/155
f 174/227/156 173/226/156 189/234/156
f 175/231/157 174/228/157 190/236/157
f 168/230/158 167/229/158 183/238/158
f 176/213/159 175/231/159 191/239/159
f 169/214/160 168/230/160 184/240/160
f 177/216/161 176/213/161 192/241/161
f 170/215/162 169/214/162 185/242/162
f 178/219/163 177/243/163 193/245/163
f 171/706/164 170/215/164 186/246/164
f 194/249/165 179/222/165 193/245/165
f 172/221/166 171/220/166 187/248/166
f 180/223/167 179/222/167 195/232/167
f 188/233/168 173/226/168 187/248/168
f 200/253/169 185/242/169 199/250/169
f 193/245/170 192/244/170 208/252/170
f 201/707/171 186/246/171 200/253/171
f 209/257/172 194/249/172 208/252/172
f 187/260/173 186/254/173 202/256/173
f 195/232/174 194/249/174 210/258/174
f 203/262/175 188/259/175 202/256/175
f 211/708/176 196/261/176 210/258/176
f 189/709/177 188/259/177 204/263/177
f 205/269/178 190/264/178 204/266/178
f 183/238/179 182/237/179 198/268/179
f 191/272/180 190/264/180 206/270/180
f 184/240/181 183/238/181 199/250/181
f 207/280/182 192/271/182 206/270/182
f 204/263/183 203/262/183 219/274/183
f 205/269/184 204/266/184 220/276/184
f 198/268/185 197/267/185 213/278/185
f 206/270/186 205/269/186 221/279/186
f 214/281/187 199/250/187 213/278/187
f 222/283/188 207/280/188 221/279/188
f 200/253/189 199/250/189 215/282/189
f 208/710/190 207/280/190 223/284/190
f 201/255/191 200/285/191 216/287/191
f 224/290/192 209/257/192 223/288/192
f 202/256/193 201/255/193 217/289/193
f 210/258/194 209/257/194 225/291/194
f 218/273/195 203/262/195 217/289/195
f 211/708/529 210/258/529 226/292/529
f 223/284/197 222/283/197 238/294/197
f 216/287/198 215/286/198 231/296/198
f 224/290/199 223/288/199 239/298/199
f 217/289/200 216/287/200 232/299/200
f 225/291/201 224/290/201 240/300/201
f 233/301/202 218/273/202 232/299/202
f 241/324/203 226/292/203 240/300/203
f 219/274/530 218/273/530 234/302/530
f 220/276/205 219/275/205 235/304/205
f 213/278/206 212/277/206 228/306/206
f 221/279/207 220/276/207 236/307/207
f 214/281/208 213/278/208 229/308/208
f 237/293/209 222/283/209 236/307/209
f 215/282/210 214/281/210 230/309/210
f 235/304/531 234/303/531 250/311/531
f 228/306/212 227/305/212 243/313/212
f 236/307/213 235/304/213 251/314/213
f 244/315/214 229/308/214 243/313/214
f 252/316/215 237/293/215 251/314/215
f 245/342/216 230/309/216 244/315/216
f 238/294/217 237/293/217 253/317/217
f 231/296/218 230/295/218 246/319/218
f 254/322/219 239/298/219 253/320/219
f 232/299/220 231/296/220 247/321/220
f 240/300/221 239/298/221 255/323/221
f 248/325/222 233/301/222 247/321/222
f 256/711/223 241/324/223 255/323/223
f 234/302/532 233/301/532 249/326/532
f 261/330/225 246/319/225 260/327/225
f 254/322/226 253/320/226 269/329/226
f 247/321/227 246/319/227 262/331/227
f 255/323/228 254/322/228 270/332/228
f 263/334/229 248/325/229 262/331/229
f 256/711/230 255/323/230 271/333/230
f 249/326/231 248/325/231 264/335/231
f 250/311/232 249/310/232 265/337/232
f 243/313/233 242/312/233 258/339/233
f 251/314/234 250/311/234 266/340/234
f 244/315/235 243/313/235 259/341/235
f 267/343/236 252/316/236 266/340/236
f 260/355/237 245/342/237 259/341/237
f 253/317/238 252/316/238 268/344/238
f 280/350/239 265/345/239 279/347/239
f 258/339/533 257/338/533 273/349/533
f 266/354/241 265/345/241 281/351/241
f 259/341/242 258/339/242 274/352/242
f 282/388/243 267/353/243 281/351/243
f 275/712/244 260/355/244 274/352/244
f 268/344/245 267/343/245 283/357/245
f 276/363/246 261/358/246 275/360/246
f 269/329/247 268/328/247 284/362/247
f 262/366/248 261/358/248 277/364/248
f 285/367/249 270/332/249 284/362/249
f 278/368/250 263/365/250 277/364/250
f 286/377/251 271/333/251 285/367/251
f 264/713/252 263/365/252 279/369/252
f 299/406/253 284/370/253 298/372/253
f 277/364/254 276/363/254 292/374/254
f 285/367/534 284/362/534 300/376/534
f 293/378/256 278/368/256 292/374/256
f 301/714/257 286/377/257 300/376/257
f 279/369/258 278/368/258 294/379/258
f 280/350/259 279/347/259 295/381/259
f 273/349/535 272/348/535 288/383/535
f 281/351/261 280/350/261 296/384/261
f 274/389/536 273/385/536 289/387/536
f 297/391/263 282/388/263 296/384/263
f 275/715/264 274/389/264 290/390/264
f 283/716/265 282/388/265 298/392/265
f 291/373/266 276/363/266 290/393/266
f 296/384/267 295/381/267 311/395/267
f 289/387/268 288/386/268 304/397/268
f 312/717/269 297/391/269 311/395/269
f 305/402/270 290/390/270 304/397/270
f 298/372/271 297/398/271 313/400/271
f 306/434/272 291/401/272 305/402/272
f 299/406/273 298/372/273 314/403/273
f 292/374/274 291/373/274 307/405/274
f 300/718/275 299/406/275 315/407/275
f 308/410/276 293/378/276 307/405/276
f 301/714/277 300/376/277 316/409/277
f 309/719/278 294/379/278 308/410/278
f 295/381/279 294/380/279 310/394/279
f 288/386/280 287/412/280 303/396/280
f 330/450/281 315/407/281 329/414/281
f 323/420/282 308/415/282 322/417/282
f 316/409/283 315/408/283 331/419/283
f 309/720/284 308/415/284 324/421/284
f 310/427/285 309/422/285 325/424/285
f 303/396/537 302/413/537 318/426/537
f 311/431/287 310/427/287 326/428/287
f 304/397/288 303/396/288 319/429/288
f 327/440/289 312/430/289 326/428/289
f 320/435/290 305/402/290 319/429/290
f 313/400/291 312/399/291 328/433/291
f 321/721/292 306/434/292 320/435/292
f 314/403/293 313/400/293 329/414/293
f 307/416/294 306/436/294 322/417/294
f 319/429/295 318/426/295 334/439/295
f 342/443/296 327/440/296 341/441/296
f 335/469/297 320/435/297 334/439/297
f 343/722/298 328/442/298 342/443/298
f 336/448/299 321/437/299 335/445/299
f 329/414/300 328/433/300 344/447/300
f 322/417/301 321/437/301 337/449/301
f 345/452/302 330/450/302 344/447/302
f 338/453/303 323/420/303 337/449/303
f 346/723/304 331/451/304 345/452/304
f 324/421/305 323/420/305 339/454/305
f 325/424/306 324/423/306 340/456/306
f 318/426/538 317/425/538 333/438/538
f 326/428/308 325/424/308 341/441/308
f 353/461/309 338/453/309 352/458/309
f 346/723/310 345/452/310 361/460/310
f 339/454/311 338/453/311 354/462/311
f 340/456/312 339/455/312 355/464/312
f 348/467/313 333/438/313 347/465/313
f 341/441/314 340/456/314 356/466/314
f 334/439/315 333/438/315 349/468/315
f 357/470/316 342/443/316 356/466/316
f 350/477/317 335/469/317 349/468/317
f 343/722/318 342/443/318 358/471/318
f 351/475/319 336/448/319 350/472/319
f 344/447/320 343/446/320 359/474/320
f 337/449/321 336/448/321 352/458/321
f 360/459/322 345/452/322 359/474/322
f 372/479/323 357/470/323 371/476/323
f 365/724/324 350/477/324 364/478/324
f 358/471/325 357/470/325 373/480/325
f 351/475/326 350/472/326 366/482/326
f 374/485/327 359/474/327 373/483/327
f 352/458/328 351/475/328 367/484/328
f 375/725/329 360/459/329 374/485/329
f 368/489/330 353/461/330 367/484/330
f 361/726/331 360/486/331 376/488/331
f 354/462/539 353/461/539 369/490/539
f 370/493/540 355/464/540 369/491/540
f 363/494/334 348/467/334 362/492/334
f 356/466/335 355/464/335 371/476/335
f 349/468/336 348/467/336 364/478/336
f 376/488/337 375/487/337 391/496/337
f 369/727/338 368/497/338 384/499/338
f 385/506/339 370/500/339 384/502/339
f 378/508/340 363/503/340 377/505/340
f 371/511/341 370/500/341 386/507/341
f 364/513/342 363/503/342 379/509/342
f 387/514/343 372/510/343 386/507/343
f 380/526/344 365/512/344 379/509/344
f 373/728/345 372/510/345 388/515/345
f 381/522/346 366/516/346 380/518/346
f 374/524/347 373/519/347 389/521/347
f 367/525/348 366/516/348 382/523/348
f 390/495/349 375/487/349 389/521/349
f 383/498/350 368/497/350 382/523/350
f 396/551/351 380/526/351 395/527/351
f 388/515/352 387/514/352 404/529/352
f 381/522/353 380/518/353 397/531/353
f 389/521/354 388/520/354 405/533/354
f 382/523/355 381/522/355 398/534/355
f 406/535/356 390/495/356 405/533/356
f 399/537/357 383/498/357 398/534/357
f 391/496/358 390/495/358 407/536/358
f 384/499/359 383/498/359 400/538/359
f 385/506/360 384/502/360 401/540/360
f 378/508/361 377/505/361 394/542/361
f 386/507/362 385/506/362 402/543/362
f 379/509/363 378/508/363 395/527/363
f 403/528/364 387/514/364 402/543/364
f 400/538/365 399/537/365 415/545/365
f 416/549/366 401/540/366 415/546/366
f 394/542/367 393/541/367 409/548/367
f 402/543/368 401/540/368 417/550/368
f 410/552/541 395/527/541 409/548/541
f 418/553/370 403/528/370 417/550/370
f 411/566/371 396/551/371 410/552/371
f 404/529/372 403/528/372 419/554/372
f 412/558/373 397/531/373 411/555/373
f 405/533/374 404/532/374 420/557/374
f 398/534/375 397/531/375 413/559/375
f 421/560/376 406/535/376 420/557/376
f 414/544/377 399/537/377 413/559/377
f 407/536/378 406/535/378 422/561/378
f 419/556/379 418/562/379 434/564/379
f 427/594/380 412/565/380 426/567/380
f 420/557/381 419/556/381 435/568/381
f 413/559/382 412/558/382 428/570/382
f 421/560/383 420/557/383 436/571/383
f 429/573/384 414/544/384 428/570/384
f 422/561/385 421/560/385 437/572/385
f 415/545/386 414/544/386 430/574/386
f 431/578/387 416/549/387 430/575/387
f 409/548/388 408/547/388 424/577/388
f 417/550/389 416/549/389 432/579/389
f 410/552/390 409/548/390 425/580/390
f 433/729/391 418/553/391 432/579/391
f 411/566/392 410/552/392 426/567/392
f 431/586/393 430/581/393 446/583/393
f 424/577/394 423/576/394 439/585/394
f 432/590/395 431/586/395 447/587/395
f 425/580/396 424/577/396 440/588/396
f 448/621/397 433/589/397 447/587/397
f 426/567/398 425/580/398 441/591/398
f 434/564/399 433/563/399 449/593/399
f 442/730/400 427/594/400 441/591/400
f 450/598/401 435/568/401 449/593/401
f 428/601/402 427/595/402 443/597/402
f 436/571/403 435/568/403 451/599/403
f 444/606/404 429/600/404 443/597/404
f 437/676/405 436/602/405 452/604/405
f 445/731/406 430/605/406 444/606/406
f 450/598/407 449/593/407 465/608/407
f 443/597/408 442/596/408 458/610/408
f 451/599/409 450/598/409 466/611/409
f 459/614/410 444/606/410 458/610/410
f 452/604/411 451/603/411 467/613/411
f 445/731/412 444/606/412 460/615/412
f 446/583/413 445/582/413 461/617/413
f 454/620/542 439/585/542 453/618/542
f 447/587/415 446/583/415 462/619/415
f 455/622/543 440/588/543 454/620/543
f 463/623/417 448/621/417 462/619/417
f 456/732/418 441/591/418 455/622/418
f 449/733/419 448/621/419 464/624/419
f 457/609/420 442/596/420 456/626/420
f 454/734/421 453/627/421 469/629/421
f 462/619/422 461/617/422 477/631/422
f 455/622/423 454/620/423 470/633/423
f 478/635/424 463/623/424 477/631/424
f 456/732/425 455/622/425 471/634/425
f 464/624/426 463/623/426 479/636/426
f 472/640/427 457/609/427 471/637/427
f 465/608/428 464/607/428 480/639/428
f 458/610/429 457/609/429 473/641/429
f 466/612/430 465/642/430 481/644/430
f 474/645/431 459/614/431 473/641/431
f 482/679/432 467/613/432 481/644/432
f 460/615/433 459/614/433 475/646/433
f 461/617/434 460/616/434 476/630/434
f 6/681/497 473/641/497 5/680/497
f 481/644/498 480/643/498 14/11/498
f 7/682/499 474/645/499 6/681/499
f 482/679/500 481/644/500 15/650/500
f 8/735/544 475/646/544 7/682/544
f 476/630/545 475/647/545 9/684/545
f 2/24/505 469/629/505 1/18/505
f 477/631/506 476/630/506 10/685/506
f 3/23/507 470/686/507 2/24/507
f 478/635/508 477/631/508 11/687/508
f 4/693/509 471/688/509 3/23/509
f 479/736/510 478/689/510 12/29/510
f 5/680/511 472/640/511 4/690/511
f 480/643/512 479/691/512 13/7/512
